<?xml version="1.0" standalone="no"?>
<!DOCTYPE svg PUBLIC "-//W3C//DTD SVG 1.1//EN" "http://www.w3.org/Graphics/SVG/1.1/DTD/svg11.dtd">
<svg xmlns="http://www.w3.org/2000/svg">
<defs >
<font id="Nunito" horiz-adv-x="578" ><font-face
    font-family="Nunito ExtraBold"
    units-per-em="1000"
    panose-1="0 0 9 0 0 0 0 0 0 0"
    ascent="1011"
    descent="-353"
    alphabetic="0" />
<glyph unicode=" " glyph-name="space" horiz-adv-x="279" />
<glyph unicode="!" glyph-name="exclam" horiz-adv-x="260" d="M112 218T100 230T84 265L40 615Q39 620 39 629Q39 666 65 688T130 710Q169 710 195 688T221 628Q221 619 220 614L175 265Q173 242 161 230T130 218Q112 218 100 230ZM93 -6T69 18T45 80Q45 117
69 141T130 166Q167 166 191 142T215 80Q215 43 191 19T130 -6Q93 -6 69 18Z" />
<glyph unicode="&quot;" glyph-name="quotedbl" horiz-adv-x="469" d="M107 402T94 414T77 448L50 609Q48 625 48 632Q48 669 69 689T128 710Q164 710 185 690T206 634Q206 618 204 609L178 448Q174 424 162 413T128 402Q107 402 94 414ZM321 402T308 414T291
448L264 609Q262 625 262 632Q262 669 283 689T342 710Q378 710 399 690T420 634Q420 618 418 609L392 448Q388 424 376 413T342 402Q321 402 308 414Z" />
<glyph unicode="#" glyph-name="numbersign" horiz-adv-x="600" d="M475 454L437 259H497Q517 259 531 245T545 211Q545 192 531 179T497 165H418L392 31Q389 15 377 5T346 -5Q324 -5 310 8T296 43Q296 52 297 56L318 165H210L183 31Q180 15 168 5T139 -5Q117
-5 103 9T89 45Q89 52 90 56L111 165H83Q63 165 49 179T35 213Q35 232 49 245T83 259H130L168 454H103Q83 454 69 468T55 502Q55 521 69 534T103 548H187L212 677Q215 693 227 703T257 713Q279 713 293 699T307 664Q307 656 306 652L285 548H393L418 677Q421 693
433 703T464 713Q486 713 500 699T515 663Q515 656 514 652L494 548H517Q537 548 551 534T565 500Q565 481 551 468T517 454H475ZM337 259L375 454H267L228 259H337Z" />
<glyph unicode="$" glyph-name="dollar" horiz-adv-x="600" d="M575 124T520 69T370 -3V-60Q370 -87 354 -103T310 -120Q284 -120 267 -104T250 -60V-6Q195 -1 144 17T53 63Q37 73 31 85T24 117Q24 142 39 161T75 180Q94 180 122 164Q168 137 209 125T296 112Q356
112 388 134T420 198Q420 223 402 239T356 264T278 287Q204 306 156 325T74 385T39 495Q39 576 96 634T247 708V765Q247 792 264 808T307 825Q334 825 350 809T367 765V710Q457 698 536 642Q551 632 557 619T564 588Q564 563 549 544T513 525Q502 525 493 528T466
541Q425 567 393 580T313 593Q259 593 227 569T194 505Q194 477 213 460T261 432T342 409Q415 391 461 373T541 314T575 205Q575 124 520 69Z" />
<glyph unicode="%" glyph-name="percent" horiz-adv-x="954" d="M326 -19T292 -19Q271 -19 256 -4T240 35Q240 54 252 75L606 686Q627 724 662 724Q684 724 699 709T715 670Q715 651 703 630L349 19Q326 -19 292 -19ZM133 285T85 340T36 502Q36 605 85 660T219
716Q305 716 353 661T402 501Q402 395 354 340T219 285Q133 285 85 340ZM250 379T264 407T278 501Q278 564 264 592T219 621Q189 621 175 593T161 501Q161 436 175 408T219 379Q250 379 264 407ZM649 -7T601 48T552 210Q552 314 600 369T735 424Q820 424 869 369T918
209Q918 104 870 49T735 -7Q649 -7 601 48ZM766 87T780 115T794 209Q794 273 780 301T735 330Q705 330 691 302T676 209Q676 143 690 115T735 87Q766 87 780 115Z" />
<glyph unicode="&amp;" glyph-name="ampersand" horiz-adv-x="691" d="M690 76T690 52Q690 28 671 10T627 -8Q602 -8 583 10L505 82Q457 39 399 16T280 -8Q208 -8 151 17T63 86T31 189Q31 253 65 301T172 391Q136 429 119 465T102 539Q102 590 128 629T200 690T307
712Q392 712 442 669T492 552Q492 498 462 455T369 375L491 261Q518 317 525 382Q528 411 546 426T589 442Q616 442 634 424T648 375Q638 268 582 176L669 96Q690 76 690 52ZM277 612T257 593T237 540Q237 519 248 499T289 450Q334 474 353 497T372 547Q372 576
355 594T309 612Q277 612 257 593ZM358 107T420 161L253 316Q178 270 178 199Q178 156 207 132T287 107Q358 107 420 161Z" />
<glyph unicode="&apos;" glyph-name="quotesingle" horiz-adv-x="255" d="M107 402T94 414T77 448L50 609Q48 625 48 632Q48 669 69 689T128 710Q164 710 185 690T206 634Q206 618 204 609L178 448Q174 424 162 413T128 402Q107 402 94 414Z" />
<glyph unicode="(" glyph-name="parenleft" horiz-adv-x="375" d="M99 43T99 263Q99 485 210 663Q224 686 243 697T282 709Q302 709 315 697T329 663Q329 650 323 633Q287 542 271 452T254 263Q254 164 270 75T323 -105Q329 -122 329 -135Q329 -156 316 -168T282
-181Q263 -181 244 -170T210 -135Q99 43 99 263Z" />
<glyph unicode=")" glyph-name="parenright" horiz-adv-x="375" d="M151 -158T132 -169T93 -181Q73 -181 60 -169T46 -135Q46 -122 52 -105Q88 -14 104 75T121 263Q121 362 105 452T52 633Q46 650 46 663Q46 684 59 696T93 709Q112 709 131 698T165 663Q275 487
275 263Q275 41 165 -135Q151 -158 132 -169Z" />
<glyph unicode="*" glyph-name="asterisk" horiz-adv-x="454" d="M409 574T421 559T434 524Q434 503 422 488T387 474L304 479L350 410Q358 397 358 386Q358 366 340 351T301 336Q275 336 264 360L227 435L190 360Q179 336 152 336Q131 336 114 351T96 386Q96
397 104 410L150 479L67 474Q45 473 33 488T20 523Q20 544 32 559T67 573L150 568L104 637Q96 648 96 661Q96 681 113 695T152 709Q178 709 190 686L227 611L264 686Q277 710 303 710Q323 710 340 696T358 661Q358 650 350 637L304 568L387 573Q409 574 421 559Z"
/>
<glyph unicode="+" glyph-name="plus" horiz-adv-x="600" d="M514 338T529 324T544 287Q544 265 529 250T492 235H352V94Q352 72 337 58T300 43Q278 43 263 57T248 94V235H108Q86 235 71 250T56 287Q56 309 71 323T108 338H248V479Q248 501 263 516T300 531Q322
531 337 516T352 479V338H492Q514 338 529 324Z" />
<glyph unicode="," glyph-name="comma" horiz-adv-x="260" d="M167 166T191 138T215 55Q215 -49 140 -127Q125 -142 108 -142Q91 -142 79 -131T66 -103Q66 -88 77 -77Q110 -43 121 -1Q87 2 66 24T45 80Q45 117 68 141T127 166Q167 166 191 138Z" />
<glyph unicode="-" glyph-name="hyphen" horiz-adv-x="440" d="M51 209T51 268Q51 327 122 327H318Q389 327 389 268Q389 209 318 209H122Q51 209 51 268Z" />
<glyph unicode="." glyph-name="period" horiz-adv-x="260" d="M93 -6T69 18T45 80Q45 117 69 141T130 166Q167 166 191 142T215 80Q215 43 191 19T130 -6Q93 -6 69 18Z" />
<glyph unicode="/" glyph-name="slash" horiz-adv-x="331" d="M100 -54T85 -64T50 -75Q27 -75 9 -60T-9 -20Q-9 -10 -6 1L223 721Q230 742 245 752T279 763Q303 763 321 748T339 708Q339 698 336 687L106 -33Q100 -54 85 -64Z" />
<glyph unicode="0" glyph-name="zero" horiz-adv-x="600" d="M172 -9T105 84T37 353Q37 528 104 621T300 714Q428 714 495 621T563 353Q563 177 496 84T300 -9Q172 -9 105 84ZM358 110T384 168T411 353Q411 481 385 538T300 595Q242 595 216 538T189 353Q189 226
215 168T300 110Q358 110 384 168Z" />
<glyph unicode="1" glyph-name="one" horiz-adv-x="600" d="M579 125T579 63Q579 0 506 0H164Q90 0 90 63Q90 125 164 125H257V534L169 481Q154 472 139 472Q114 472 97 493T79 540Q79 575 110 593L268 688Q303 709 338 709Q371 709 392 689T413 633V125H506Q579
125 579 63Z" />
<glyph unicode="2" glyph-name="two" horiz-adv-x="601" d="M566 125T566 63Q566 0 492 0H120Q89 0 71 18T52 65Q52 101 81 131L301 364Q375 442 375 508Q375 549 352 570T285 592Q247 592 215 579T141 541Q124 531 115 527T94 523Q73 523 58 542T43 588Q43 607
49 619T71 642Q116 675 174 694T292 714Q363 714 416 690T499 622T528 519Q528 458 503 406T417 290L260 125H492Q566 125 566 63Z" />
<glyph unicode="3" glyph-name="three" horiz-adv-x="600" d="M479 345T512 301T546 192Q546 131 515 86T424 17T287 -8Q222 -8 163 11T60 64Q45 75 39 88T32 118Q32 144 47 162T83 181Q95 181 105 178T130 165Q174 140 206 127T281 114Q342 114 370 136T398 207Q398
254 369 275T276 296H217Q191 296 176 314T161 357Q161 381 176 399T217 417H259Q320 417 349 438T379 503Q379 545 354 568T284 592Q247 592 215 579T141 541Q126 532 116 529T94 525Q73 525 58 543T43 588Q43 606 49 618T71 642Q113 676 171 695T291 714Q362
714 416 691T499 624T528 524Q528 467 499 425T417 363Q479 345 512 301Z" />
<glyph unicode="4" glyph-name="four" horiz-adv-x="600" d="M593 248T593 189Q593 129 520 129H483V72Q483 34 462 14T407 -6Q373 -6 352 14T331 72V129H88Q57 129 39 147T21 194Q21 222 40 250L338 676Q350 693 368 701T406 710Q437 710 460 690T483 633V248H520Q593
248 593 189ZM178 248H331V468L178 248Z" />
<glyph unicode="5" glyph-name="five" horiz-adv-x="600" d="M408 456T459 428T538 348T566 230Q566 160 533 106T441 22T303 -8Q241 -8 182 11T80 64Q65 75 59 87T53 118Q53 144 67 162T103 181Q115 181 125 178T151 165Q191 141 224 128T296 114Q357 114 388
142T420 225Q420 277 388 307T300 337Q266 337 238 329T177 300Q156 288 135 288Q111 288 95 302T78 341V632Q78 667 97 686T151 705H473Q547 705 547 646Q547 586 473 586H230V429Q278 456 343 456Q408 456 459 428Z" />
<glyph unicode="6" glyph-name="six" horiz-adv-x="600" d="M413 458T461 429T537 348T565 230Q565 161 534 107T448 22T324 -9Q187 -9 112 82T37 342Q37 455 72 539T172 669T325 714Q382 714 440 695T539 642Q553 631 559 619T566 588Q566 562 552 544T516 525Q503
525 494 528T468 541Q428 565 397 578T332 592Q270 592 234 535T192 375Q215 413 257 435T351 458Q413 458 461 429ZM362 112T390 143T419 225Q419 275 391 306T315 337Q268 337 239 306T210 225Q210 175 239 144T315 112Q362 112 390 143Z" />
<glyph unicode="7" glyph-name="seven" horiz-adv-x="600" d="M533 705T550 687T567 641Q567 612 551 584L239 32Q228 11 211 1T174 -9Q145 -9 122 11T99 62Q99 83 110 102L383 580H106Q33 580 33 642Q33 705 106 705H502Q533 705 550 687Z" />
<glyph unicode="8" glyph-name="eight" horiz-adv-x="600" d="M505 345T538 301T571 192Q571 98 499 45T300 -8Q173 -8 101 45T29 192Q29 258 62 302T157 363Q105 383 76 425T47 523Q47 611 115 662T300 714Q418 714 485 663T553 523Q553 466 524 423T444 363Q505
345 538 301ZM193 595T193 506Q193 416 300 416Q407 416 407 506Q407 595 300 595Q193 595 193 506ZM426 111T426 204Q426 297 300 297Q174 297 174 204Q174 111 300 111Q426 111 426 204Z" />
<glyph unicode="9" glyph-name="nine" horiz-adv-x="600" d="M413 714T488 623T563 363Q563 250 528 166T428 36T275 -9Q218 -9 160 10T61 63Q47 74 41 86T34 117Q34 143 48 161T84 180Q97 180 106 177T132 164Q172 140 203 127T268 113Q330 113 366 170T408 330Q385
292 343 270T249 247Q187 247 139 276T63 357T35 475Q35 544 66 598T152 683T276 714Q413 714 488 623ZM332 368T361 399T390 480Q390 530 361 561T285 593Q238 593 210 562T181 480Q181 430 209 399T285 368Q332 368 361 399Z" />
<glyph unicode=":" glyph-name="colon" horiz-adv-x="260" d="M93 329T69 353T45 415Q45 452 69 476T130 501Q167 501 191 477T215 415Q215 378 191 354T130 329Q93 329 69 353ZM93 -6T69 18T45 80Q45 117 69 141T130 166Q167 166 191 142T215 80Q215 43 191 19T130
-6Q93 -6 69 18Z" />
<glyph unicode=";" glyph-name="semicolon" horiz-adv-x="260" d="M93 329T69 353T45 415Q45 452 69 476T130 501Q167 501 191 477T215 415Q215 378 191 354T130 329Q93 329 69 353ZM167 166T191 138T215 55Q215 -49 140 -127Q125 -142 108 -142Q91 -142 79 -131T66
-103Q66 -88 77 -77Q110 -43 121 -1Q87 2 66 24T45 80Q45 117 68 141T127 166Q167 166 191 138Z" />
<glyph unicode="&lt;" glyph-name="less" horiz-adv-x="600" d="M529 150T536 139T544 113Q544 89 529 74T490 58Q477 58 462 64L109 208Q84 219 70 239T56 287Q56 313 70 334T109 365L462 509Q477 515 491 515Q514 515 529 500T544 461Q544 431 515 418L188 287L515
156Q529 150 536 139Z" />
<glyph unicode="=" glyph-name="equal" horiz-adv-x="600" d="M92 335T77 350T62 387Q62 409 77 423T114 438H498Q520 438 535 424T550 387Q550 365 535 350T498 335H114Q92 335 77 350ZM92 391T77 406T62 443Q62 465 77 479T114 494H498Q520 494 535 480T550
443Q550 421 535 406T498 391H114Q92 391 77 406Z" />
<glyph unicode="&gt;" glyph-name="greater" horiz-adv-x="600" d="M516 355T530 334T544 287Q544 260 530 240T491 208L138 64Q123 58 110 58Q87 58 72 73T56 113Q56 127 63 138T85 156L412 287L85 418Q56 431 56 461Q56 485 71 500T109 515Q123 515 138 509L491
365Q516 355 530 334Z" />
<glyph unicode="?" glyph-name="question" horiz-adv-x="468" d="M205 218T193 233T180 273Q180 324 198 358T253 433Q280 464 292 484T305 531Q305 559 285 575T229 592Q197 592 170 579T96 539Q67 523 48 523Q27 523 13 541T-2 586Q-2 604 4 616T25 640Q69 675
126 694T242 714Q304 714 353 692T430 632T458 545Q458 508 444 478T409 425T355 369Q317 334 298 311T274 258Q270 239 258 229T227 218Q205 218 193 233ZM192 -6T168 18T144 80Q144 117 168 141T229 166Q265 166 289 142T313 80Q313 43 289 19T229 -6Q192 -6
168 18Z" />
<glyph unicode="@" glyph-name="at" horiz-adv-x="939" d="M346 -159T247 -106T95 44T41 265Q41 404 97 505T254 659T481 712Q612 712 706 663T849 530T898 340Q898 253 872 191T798 96T691 63Q638 63 605 86T564 147H562Q535 108 502 86T417 63Q343 63 302 112T260
244Q260 315 287 373T361 466T470 500Q511 500 542 483T586 435H589L591 448Q594 468 608 478T646 489Q669 489 682 476T695 440Q695 430 694 425L664 255Q659 225 659 208Q659 179 671 164T710 149Q730 149 750 168T783 230T797 340Q797 424 761 487T654 585T481
620Q385 620 310 579T192 457T149 265Q149 165 188 90T302 -26T480 -67Q545 -67 592 -54T685 -11Q701 -1 715 -1Q735 -1 748 -15T762 -48Q762 -73 738 -90Q698 -119 630 -139T480 -159Q346 -159 247 -106ZM481 149T509 173T552 237T567 321Q567 367 547 390T489
413Q452 413 425 388T384 324T370 244Q370 201 389 175T441 149Q481 149 509 173Z" />
<glyph unicode="A" glyph-name="A" horiz-adv-x="751" d="M735 77T735 63Q735 35 713 16T661 -4Q642 -4 625 6T599 38L546 156H207L154 38Q145 17 129 7T92 -4Q63 -4 40 15T17 63Q17 77 25 95L295 662Q306 686 328 698T375 711Q401 711 423 698T457 662L727 95Q735
77 735 63ZM260 274H493L377 534L260 274Z" />
<glyph unicode="B" glyph-name="B" horiz-adv-x="689" d="M584 347T617 303T651 193Q651 104 586 52T405 0H143Q108 0 89 19T70 73V632Q70 667 89 686T143 705H395Q505 705 569 656T634 522Q634 467 605 426T523 365Q584 347 617 303ZM222 418H369Q429 418 457
438T486 501Q486 545 458 565T369 586H222V418ZM449 119T477 140T505 208Q505 255 477 277T387 299H222V119H387Q449 119 477 140Z" />
<glyph unicode="C" glyph-name="C" horiz-adv-x="678" d="M290 -9T212 35T92 161T50 353Q50 463 92 544T212 670T394 714Q525 714 620 642Q635 630 641 618T647 588Q647 562 633 544T597 525Q583 525 573 528T549 541Q509 567 475 578T402 590Q306 590 258 531T209
353Q209 115 402 115Q439 115 472 126T549 164Q564 173 574 176T597 180Q618 180 632 162T647 117Q647 99 641 87T620 63Q525 -9 394 -9Q290 -9 212 35Z" />
<glyph unicode="D" glyph-name="D" horiz-adv-x="763" d="M108 0T89 19T70 73V632Q70 667 89 686T143 705H344Q459 705 542 663T669 542T713 353Q713 243 670 164T543 42T344 0H143Q108 0 89 19ZM333 126Q558 126 558 353Q558 579 333 579H226V126H333Z" />
<glyph unicode="E" glyph-name="E" horiz-adv-x="593" d="M108 0T89 19T70 73V632Q70 667 89 686T143 705H497Q571 705 571 645Q571 584 497 584H222V419H477Q551 419 551 358Q551 298 477 298H222V121H497Q571 121 571 60Q571 0 497 0H143Q108 0 89 19Z" />
<glyph unicode="F" glyph-name="F" horiz-adv-x="572" d="M113 -6T92 15T70 72V632Q70 667 89 686T143 705H487Q525 705 543 690T561 643Q561 612 543 597T487 582H224V420H467Q505 420 523 405T541 358Q541 327 523 312T467 297H224V72Q224 36 204 15T148 -6Q113
-6 92 15Z" />
<glyph unicode="G" glyph-name="G" horiz-adv-x="738" d="M643 389T659 374T676 331V136Q676 96 670 74T647 39T599 17Q560 5 510 -2T414 -9Q302 -9 220 34T94 159T50 353Q50 463 93 544T218 670T407 714Q546 714 637 642Q652 630 658 618T664 588Q664 562 650
544T615 525Q602 525 592 529T566 542Q524 568 489 579T412 590Q208 590 208 353Q208 231 261 171T421 111Q479 111 536 126V281H444Q415 281 399 295T383 335Q383 361 399 375T444 389H615Q643 389 659 374Z" />
<glyph unicode="H" glyph-name="H" horiz-adv-x="771" d="M659 710T680 689T701 633V72Q701 37 680 16T624 -6Q589 -6 569 15T548 72V296H223V72Q223 37 202 16T147 -6Q112 -6 91 15T70 72V633Q70 668 91 689T147 710Q182 710 202 689T223 633V420H548V633Q548
668 568 689T624 710Q659 710 680 689Z" />
<glyph unicode="I" glyph-name="I" horiz-adv-x="296" d="M112 -6T91 15T70 72V633Q70 668 91 689T148 710Q184 710 205 689T226 633V72Q226 36 205 15T148 -6Q112 -6 91 15Z" />
<glyph unicode="J" glyph-name="J" horiz-adv-x="377" d="M31 -8T8 8T-16 57Q-16 87 -1 101T46 118L78 120Q150 123 150 205V633Q150 668 172 689T229 710Q264 710 285 689T307 633V207Q307 9 109 -4L77 -6Q31 -8 8 8Z" />
<glyph unicode="K" glyph-name="K" horiz-adv-x="678" d="M664 94T664 67Q664 39 643 18T593 -3Q561 -3 536 23L226 326V72Q226 36 205 15T148 -6Q112 -6 91 15T70 72V633Q70 668 91 689T148 710Q184 710 205 689T226 633V394L528 687Q550 709 578 709Q606 709
627 689T648 640Q648 611 624 588L386 365L641 117Q664 94 664 67Z" />
<glyph unicode="L" glyph-name="L" horiz-adv-x="563" d="M108 0T89 19T70 73V633Q70 668 91 689T148 710Q184 710 205 689T226 633V127H482Q555 127 555 63Q555 0 482 0H143Q108 0 89 19Z" />
<glyph unicode="M" glyph-name="M" horiz-adv-x="842" d="M729 710T749 689T770 633V65Q770 32 751 13T701 -6Q671 -6 652 13T633 65V418L491 151Q477 125 461 113T421 101Q399 101 382 113T351 151L209 413V65Q209 33 190 14T140 -6Q110 -6 91 13T72 65V633Q72
667 92 688T146 710Q194 710 219 659L422 274L624 659Q651 710 696 710Q729 710 749 689Z" />
<glyph unicode="N" glyph-name="N" horiz-adv-x="752" d="M641 710T661 689T682 633V72Q682 37 662 16T608 -6Q572 -6 550 20L215 449V72Q215 37 196 16T143 -6Q110 -6 90 15T70 72V633Q70 667 90 688T144 710Q181 710 201 684L536 258V633Q536 667 556 688T608
710Q641 710 661 689Z" />
<glyph unicode="O" glyph-name="O" horiz-adv-x="787" d="M289 -9T212 35T92 161T50 353Q50 463 92 544T211 670T394 714Q499 714 576 670T696 545T738 353Q738 243 696 162T577 36T394 -9Q289 -9 212 35ZM482 112T532 174T583 353Q583 470 533 531T394 593Q305
593 256 532T206 353Q206 236 256 174T394 112Q482 112 532 174Z" />
<glyph unicode="P" glyph-name="P" horiz-adv-x="668" d="M112 -6T91 15T70 72V632Q70 667 89 686T143 705H394Q509 705 573 647T637 485Q637 381 573 323T394 265H226V72Q226 36 205 15T148 -6Q112 -6 91 15ZM374 383Q491 383 491 484Q491 586 374 586H226V383H374Z" />
<glyph unicode="Q" glyph-name="Q" horiz-adv-x="787" d="M670 -80Q684 -102 684 -123Q684 -150 662 -168T609 -186Q588 -186 570 -176T540 -147L480 -47Q468 -27 448 -18T394 -9Q289 -9 212 35T92 161T50 353Q50 463 92 544T211 670T394 714Q499 714 576 670T696
545T738 353Q738 238 693 155T563 30Q612 15 642 -34L670 -80ZM482 112T532 174T583 353Q583 470 533 531T394 593Q305 593 256 532T206 353Q206 236 256 174T394 112Q482 112 532 174Z" />
<glyph unicode="R" glyph-name="R" horiz-adv-x="701" d="M663 77T663 56Q663 28 641 10T588 -8Q569 -8 551 1T521 29L389 225Q372 251 353 262T305 274H224V72Q224 36 204 15T148 -6Q112 -6 91 15T70 72V632Q70 667 89 686T143 705H394Q518 705 581 651T645 493Q645
412 600 358T473 287Q503 281 526 264T572 213L648 99Q663 77 663 56ZM438 392T468 415T498 489Q498 540 468 563T371 586H222V392H371Q438 392 468 415Z" />
<glyph unicode="S" glyph-name="S" horiz-adv-x="651" d="M245 -9T177 9T66 62Q51 73 45 85T38 117Q38 142 53 161T89 180Q100 180 110 177T136 164Q179 137 223 125T320 112Q386 112 421 134T456 197Q456 228 424 247T308 283Q215 302 160 329T79 396T53 493Q53
556 89 606T190 685T336 714Q478 714 570 643Q585 631 591 619T598 588Q598 563 583 544T547 525Q536 525 527 528T500 541Q459 567 425 580T337 593Q276 593 241 570T206 505Q206 481 219 466T264 438T354 413Q490 383 549 336T609 207Q609 143 574 94T474 18T324
-9Q245 -9 177 9Z" />
<glyph unicode="T" glyph-name="T" horiz-adv-x="622" d="M276 -5T255 16T233 72V578H71Q-3 578 -3 642Q-3 705 71 705H551Q625 705 625 642Q625 578 551 578H389V72Q389 37 368 16T311 -5Q276 -5 255 16Z" />
<glyph unicode="U" glyph-name="U" horiz-adv-x="739" d="M221 -9T144 67T66 291V633Q66 668 87 689T143 710Q178 710 198 689T219 633V284Q219 200 257 156T369 112Q442 112 481 156T520 284V633Q520 668 540 689T596 710Q631 710 652 689T673 633V291Q673 145
595 68T369 -9Q221 -9 144 67Z" />
<glyph unicode="V" glyph-name="V" horiz-adv-x="728" d="M589 690T606 700T644 711Q674 711 698 691T722 642Q722 627 715 612L445 42Q434 19 412 7T364 -6Q338 -6 316 6T283 42L13 612Q6 626 6 641Q6 671 31 691T87 711Q108 711 125 701T152 669L366 201L580
669Q589 690 606 700Z" />
<glyph unicode="W" glyph-name="W" horiz-adv-x="1115" d="M953 687T971 699T1013 712Q1042 712 1062 694T1083 645Q1083 630 1077 612L869 43Q860 19 838 6T788 -8Q761 -8 739 5T708 43L559 464L406 43Q397 19 375 6T326 -8Q300 -8 278 5T246 43L38 612Q32 629
32 644Q32 675 54 693T106 712Q130 712 149 700T178 663L332 220L492 661Q501 685 520 698T562 711Q585 711 604 698T632 660L785 212L944 663Q953 687 971 699Z" />
<glyph unicode="X" glyph-name="X" horiz-adv-x="675" d="M651 90T651 66Q651 37 629 16T577 -6Q547 -6 526 19L338 249L148 19Q126 -6 97 -6Q69 -6 47 15T24 66Q24 91 42 112L247 356L49 593Q30 615 30 639Q30 668 52 689T103 711Q133 711 155 685L338 464L519
685Q541 711 571 711Q599 711 621 690T644 639Q644 614 626 593L428 356L632 112Q651 90 651 66Z" />
<glyph unicode="Y" glyph-name="Y" horiz-adv-x="636" d="M531 711T561 711Q589 711 611 690T634 640Q634 615 615 593L396 333V72Q396 34 374 14T319 -6Q284 -6 262 14T240 72V333L23 593Q4 613 4 640Q4 668 25 689T75 711Q105 711 127 685L318 452L509 685Q531
711 561 711Z" />
<glyph unicode="Z" glyph-name="Z" horiz-adv-x="610" d="M554 123T572 108T590 62Q590 30 572 15T516 0H103Q72 0 54 18T35 65Q35 94 55 121L388 582H110Q72 582 54 597T36 643Q36 675 54 690T110 705H508Q539 705 557 687T576 640Q576 610 557 584L223 123H516Q554
123 572 108Z" />
<glyph unicode="[" glyph-name="bracketleft" horiz-adv-x="373" d="M174 -180T139 -145T104 -47V572Q104 635 139 670T237 705H316Q340 705 356 691T373 649Q373 621 357 607T316 592H293Q272 592 262 583T252 549V-24Q252 -48 262 -57T293 -67H316Q340 -67 356
-81T373 -124Q373 -151 357 -165T316 -180H237Q174 -180 139 -145Z" />
<glyph unicode="\" glyph-name="backslash" horiz-adv-x="330" d="M-6 687Q-10 701 -10 708Q-10 732 8 747T50 763Q69 763 84 753T106 721L336 1Q339 -10 339 -19Q339 -44 321 -59T279 -75Q260 -75 245 -65T223 -33L-6 687Z" />
<glyph unicode="]" glyph-name="bracketright" horiz-adv-x="373" d="M33 -180T17 -166T0 -124Q0 -96 16 -82T56 -67H80Q101 -67 111 -58T121 -24V549Q121 573 111 582T80 592H56Q33 592 17 606T0 649Q0 676 16 690T56 705H136Q198 705 233 670T268 572V-47Q268
-110 233 -145T136 -180H56Q33 -180 17 -166Z" />
<glyph unicode="^" glyph-name="asciicircum" horiz-adv-x="600" d="M529 207T529 195Q529 172 512 158T474 143Q461 143 450 150T432 171L300 498L168 171Q157 143 127 143Q106 143 89 158T71 196Q71 209 77 222L222 579Q233 603 253 617T300 631Q326 631 347
617T378 579L523 222Q529 207 529 195Z" />
<glyph unicode="_" glyph-name="underscore" horiz-adv-x="500" d="M31 -87T16 -76T0 -44Q0 -24 15 -12T57 0H443Q469 0 484 -12T500 -44Q500 -64 485 -75T443 -87H57Q31 -87 16 -76Z" />
<glyph unicode="`" glyph-name="grave" horiz-adv-x="300" d="M-1 648Q-33 672 -33 702Q-33 727 -15 744T30 762Q66 762 90 728L176 613Q185 600 185 587Q185 571 174 560T147 549Q134 549 121 559L-1 648Z" />
<glyph unicode="a" glyph-name="a" horiz-adv-x="546" d="M387 503T439 451T491 290V64Q491 31 472 13T419 -6Q387 -6 368 13T348 64V71Q333 34 298 13T216 -8Q166 -8 126 12T62 68T38 148Q38 202 65 233T154 278T321 292H347V310Q347 352 329 371T267 390Q224
390 143 360Q120 349 104 349Q82 349 69 364T56 405Q56 425 65 438T94 462Q129 481 179 492T279 503Q387 503 439 451ZM293 96T320 125T347 202V219H330Q249 219 217 206T184 159Q184 131 202 114T249 96Q293 96 320 125Z" />
<glyph unicode="b" glyph-name="b" horiz-adv-x="613" d="M426 503T475 472T551 384T579 250Q579 174 552 116T475 25T362 -8Q311 -8 270 13T207 73V65Q207 33 187 14T133 -6Q99 -6 79 13T58 65V641Q58 672 79 691T136 710Q169 710 189 692T209 644V425Q231 462
271 482T362 503Q426 503 475 472ZM371 107T400 144T429 250Q429 317 400 352T318 388Q265 388 236 352T207 248Q207 180 236 144T318 107Q371 107 400 144Z" />
<glyph unicode="c" glyph-name="c" horiz-adv-x="494" d="M209 -8T152 23T65 111T34 245Q34 322 66 380T158 471T294 503Q334 503 374 492T447 461Q478 442 478 405Q478 379 466 363T434 346Q421 346 410 350T379 364Q358 375 342 381T304 387Q248 387 219 352T189
248Q189 180 218 144T304 108Q325 108 341 113T380 131Q399 140 410 144T434 149Q453 149 465 132T478 89Q478 52 447 34Q415 14 373 3T285 -8Q209 -8 152 23Z" />
<glyph unicode="d" glyph-name="d" horiz-adv-x="613" d="M512 710T533 691T555 641V65Q555 33 535 14T480 -6Q446 -6 426 13T405 65V73Q383 35 343 14T251 -8Q188 -8 139 24T62 115T34 250Q34 326 61 383T138 472T251 503Q301 503 341 482T404 423V644Q404 674
424 692T477 710Q512 710 533 691ZM348 107T376 143T405 248Q405 316 377 352T295 388Q242 388 213 353T184 250Q184 182 213 145T295 107Q348 107 376 143Z" />
<glyph unicode="e" glyph-name="e" horiz-adv-x="533" d="M472 146T484 130T497 89Q497 72 487 58T459 33Q425 15 380 4T297 -8Q217 -8 158 23T66 111T34 247Q34 322 65 380T151 470T276 503Q343 503 393 474T472 390T500 262Q500 240 490 229T460 217H180Q187
158 216 132T299 105Q328 105 351 112T402 131Q416 137 429 141T452 146Q472 146 484 130ZM237 399T211 372T180 292H373Q370 345 347 372T280 399Q237 399 211 372Z" />
<glyph unicode="f" glyph-name="f" horiz-adv-x="376" d="M284 592T266 570T248 508V491H318Q386 491 386 434Q386 378 318 378H248V66Q248 31 227 13T173 -5Q140 -5 119 13T97 66V378H57Q-10 378 -10 434Q-10 491 57 491H97Q97 587 150 642T296 704L322 706L340
707Q409 707 409 654Q409 602 351 597L325 595Q284 592 266 570Z" />
<glyph unicode="g" glyph-name="g" horiz-adv-x="617" d="M518 501T538 482T559 430V53Q559 -66 490 -127T288 -188Q176 -188 104 -148Q86 -138 76 -124T66 -91Q66 -66 78 -50T110 -34Q121 -34 136 -38T167 -49Q199 -61 226 -68T284 -75Q348 -75 379 -46T410 42V96Q389
58 347 36T253 14Q189 14 140 44T62 129T34 258Q34 331 62 386T139 472T253 503Q304 503 345 482T409 422V432Q409 464 429 482T484 501Q518 501 538 482ZM350 129T379 163T409 258Q409 319 380 353T297 388Q244 388 214 354T184 258Q184 197 214 163T297 129Q350
129 379 163Z" />
<glyph unicode="h" glyph-name="h" horiz-adv-x="595" d="M540 503T540 296V65Q540 32 520 13T464 -6Q429 -6 409 13T389 65V298Q389 342 371 363T313 385Q266 385 238 355T209 275V65Q209 32 189 13T134 -6Q99 -6 79 13T58 65V641Q58 672 79 691T136 710Q169
710 189 692T209 644V426Q235 464 276 483T369 503Q540 503 540 296Z" />
<glyph unicode="i" glyph-name="i" horiz-adv-x="267" d="M101 -6T80 12T58 65V430Q58 465 80 483T134 501Q166 501 187 483T209 430V65Q209 30 188 12T134 -6Q101 -6 80 12ZM94 581T71 601T48 657Q48 692 71 712T134 732Q173 732 196 712T220 657Q220 622 197
602T134 581Q94 581 71 601Z" />
<glyph unicode="j" glyph-name="j" horiz-adv-x="267" d="M-35 -185T-59 -171T-83 -126Q-83 -77 -24 -73L4 -71Q30 -69 44 -54T58 -8V430Q58 465 80 483T134 501Q166 501 187 483T209 430V3Q209 -167 35 -180L7 -182Q-35 -185 -59 -171ZM93 581T70 601T47 657Q47
692 70 712T133 732Q172 732 195 712T219 657Q219 622 196 602T133 581Q93 581 70 601Z" />
<glyph unicode="k" glyph-name="k" horiz-adv-x="558" d="M544 95T544 67Q544 39 524 17T476 -5Q450 -5 428 16L209 219V66Q209 31 188 13T134 -5Q101 -5 80 13T58 66V639Q58 674 79 692T134 710Q166 710 187 692T209 639V281L409 478Q431 500 458 500Q486 500
507 480T528 431Q528 405 505 382L372 255L521 117Q544 95 544 67Z" />
<glyph unicode="l" glyph-name="l" horiz-adv-x="267" d="M101 -6T80 12T58 65V639Q58 674 79 692T134 710Q166 710 187 692T209 639V65Q209 30 188 12T134 -6Q101 -6 80 12Z" />
<glyph unicode="m" glyph-name="m" horiz-adv-x="885" d="M743 503T786 455T829 296V65Q829 30 808 12T754 -6Q722 -6 700 12T678 65V298Q678 346 662 365T611 385Q569 385 544 356T519 275V65Q519 30 498 12T444 -6Q412 -6 390 12T368 65V298Q368 346 352 365T301
385Q259 385 234 356T209 275V65Q209 30 188 12T134 -6Q102 -6 80 12T58 65V432Q58 465 80 483T135 501Q165 501 185 484T205 435V425Q229 463 267 483T355 503Q408 503 444 482T501 412Q524 454 566 478T663 503Q743 503 786 455Z" />
<glyph unicode="n" glyph-name="n" horiz-adv-x="595" d="M454 503T497 452T540 296V65Q540 32 520 13T464 -6Q429 -6 409 13T389 65V289Q389 339 371 362T313 385Q266 385 238 355T209 275V65Q209 32 189 13T134 -6Q99 -6 79 13T58 65V432Q58 463 79 482T135
501Q166 501 185 483T205 435V421Q231 461 272 482T366 503Q454 503 497 452Z" />
<glyph unicode="o" glyph-name="o" horiz-adv-x="588" d="M216 -8T157 23T66 112T34 248Q34 326 66 383T157 472T294 503Q372 503 431 472T522 384T554 248Q554 170 522 113T431 24T294 -8Q216 -8 157 23ZM404 107T404 248Q404 319 376 354T294 389Q184 389 184
248Q184 107 294 107Q404 107 404 248Z" />
<glyph unicode="p" glyph-name="p" horiz-adv-x="613" d="M425 503T474 471T551 380T579 245Q579 169 552 112T475 23T362 -8Q312 -8 272 12T209 70V-119Q209 -149 189 -167T136 -185Q101 -185 80 -166T58 -116V430Q58 462 78 481T133 501Q167 501 187 482T207
430V422Q229 460 270 481T362 503Q425 503 474 471ZM371 107T400 142T429 245Q429 313 400 350T318 388Q265 388 236 352T207 247Q207 180 236 144T318 107Q371 107 400 142Z" />
<glyph unicode="q" glyph-name="q" horiz-adv-x="613" d="M514 501T534 482T555 430V-116Q555 -147 534 -166T477 -185Q444 -185 424 -167T404 -119V71Q382 34 342 13T251 -8Q187 -8 138 23T62 111T34 245Q34 321 61 379T138 470T251 503Q302 503 342 482T405
422V430Q405 462 425 481T480 501Q514 501 534 482ZM348 107T376 143T405 247Q405 315 377 351T295 388Q242 388 213 351T184 245Q184 178 213 143T295 107Q348 107 376 143Z" />
<glyph unicode="r" glyph-name="r" horiz-adv-x="401" d="M381 503T398 488T416 441Q416 408 400 392T343 372L313 369Q258 363 234 333T209 256V65Q209 30 188 12T134 -6Q101 -6 80 12T58 65V432Q58 465 80 483T133 501Q163 501 183 484T203 435V408Q221 451
257 474T337 500L351 501Q381 503 398 488Z" />
<glyph unicode="s" glyph-name="s" horiz-adv-x="487" d="M183 -8T138 2T59 34Q44 43 36 58T28 92Q28 115 41 130T73 146Q86 146 99 142T126 131Q154 118 181 111T248 103Q283 103 302 114T322 144Q322 158 314 166T282 182T209 199Q120 216 81 250T42 345Q42
390 69 426T145 482T253 503Q296 503 337 492T410 461Q441 442 441 405Q441 381 428 365T396 349Q373 349 341 367Q316 380 296 386T247 393Q216 393 198 382T180 350Q180 329 201 318T282 296Q349 283 387 265T442 218T459 147Q459 76 401 34T244 -8Q183 -8 138
2Z" />
<glyph unicode="t" glyph-name="t" horiz-adv-x="387" d="M361 102T375 89T389 51Q389 22 366 7T300 -5L272 -3Q97 11 97 180V378H57Q24 378 7 392T-10 434Q-10 462 7 476T57 491H97V569Q97 602 117 621T173 640Q208 640 228 621T248 569V491H318Q386 491 386
434Q386 407 369 393T318 378H248V169Q248 139 262 124T303 106L331 104Q361 102 375 89Z" />
<glyph unicode="u" glyph-name="u" horiz-adv-x="589" d="M490 501T510 482T531 430V63Q531 32 510 13T454 -6Q422 -6 403 12T384 60V70Q361 32 324 12T239 -8Q146 -8 101 43T55 199V430Q55 463 75 482T131 501Q166 501 186 482T206 430V196Q206 152 224 131T281
110Q325 110 352 140T380 219V430Q380 463 400 482T455 501Q490 501 510 482Z" />
<glyph unicode="v" glyph-name="v" horiz-adv-x="534" d="M403 479T419 489T455 500Q483 500 505 482T527 437Q527 422 520 408L340 39Q330 17 310 6T267 -6Q244 -6 224 5T193 39L13 408Q7 422 7 435Q7 462 30 481T83 500Q104 500 121 490T148 458L271 189L393
458Q403 479 419 489Z" />
<glyph unicode="w" glyph-name="w" horiz-adv-x="863" d="M727 478T743 489T777 500Q805 500 827 481T849 434Q849 422 843 407L679 39Q670 17 650 6T608 -6Q585 -6 566 5T537 39L430 288L327 39Q318 17 299 6T256 -6Q233 -6 213 5T184 39L21 407Q15 421 15 434Q15
462 38 481T92 500Q112 500 128 489T154 457L261 188L370 455Q379 476 396 487T435 499Q456 499 474 488T501 455L612 188L718 457Q727 478 743 489Z" />
<glyph unicode="x" glyph-name="x" horiz-adv-x="540" d="M518 88T518 61Q518 34 498 14T450 -7Q423 -7 400 17L270 157L141 17Q118 -7 91 -7Q63 -7 43 13T22 62Q22 88 44 111L179 252L53 383Q31 406 31 432Q31 460 51 480T99 500Q127 500 150 476L270 348L391
476Q414 500 442 500Q469 500 489 480T510 432Q510 406 488 383L361 252L496 111Q518 88 518 61Z" />
<glyph unicode="y" glyph-name="y" horiz-adv-x="534" d="M402 479T418 489T454 499Q483 499 505 481T527 436Q527 422 520 408L251 -144Q241 -165 224 -175T188 -186Q160 -186 139 -168T118 -124Q118 -108 125 -94L191 43L13 408Q7 422 7 435Q7 462 30 481T84
500Q104 500 121 490T148 458L272 188L393 458Q402 479 418 489Z" />
<glyph unicode="z" glyph-name="z" horiz-adv-x="514" d="M495 113T495 56Q495 0 427 0H103Q73 0 54 19T35 64Q35 94 56 116L290 378H98Q30 378 30 434Q30 491 98 491H410Q441 491 459 472T478 426Q478 396 457 374L224 113H427Q495 113 495 56Z" />
<glyph unicode="{" glyph-name="braceleft" horiz-adv-x="410" d="M377 -67T393 -81T410 -124Q410 -151 394 -165T353 -180H274Q211 -180 176 -145T141 -47V127Q141 166 128 183T81 204Q54 206 40 221T25 263Q25 287 39 302T81 320Q114 323 127 340T141 397V572Q141
635 176 670T274 705H353Q377 705 393 691T410 649Q410 621 394 607T353 592H330Q309 592 299 583T289 549V379Q289 334 264 302T206 262Q239 254 264 222T289 145V-24Q289 -48 299 -57T330 -67H353Q377 -67 393 -81Z" />
<glyph unicode="|" glyph-name="bar" horiz-adv-x="290" d="M115 -185T95 -166T75 -115V640Q75 671 94 690T145 710Q175 710 195 691T215 640V-115Q215 -146 196 -165T145 -185Q115 -185 95 -166Z" />
<glyph unicode="}" glyph-name="braceright" horiz-adv-x="410" d="M356 318T370 303T385 263Q385 237 371 222T329 204Q296 201 283 184T269 127L268 -47Q268 -110 233 -145T136 -180H56Q33 -180 17 -166T0 -124Q0 -96 16 -82T56 -67H80Q101 -67 111 -58T121
-24V145Q121 190 146 222T204 262Q171 270 146 302T121 379V549Q121 573 111 582T80 592H56Q33 592 17 606T0 649Q0 676 16 690T56 705H136Q198 705 233 670T268 572V397Q268 358 281 341T329 320Q356 318 370 303Z" />
<glyph unicode="~" glyph-name="asciitilde" horiz-adv-x="600" d="M378 204T349 214T283 244Q252 259 235 266T203 273Q178 273 157 254Q133 230 112 230Q101 230 88 238Q79 244 74 254T68 276Q68 290 75 301Q95 334 126 352T193 370Q222 370 251 360T317 330Q345
316 363 309T397 302Q422 302 443 320Q465 344 486 344Q499 344 511 336Q521 329 526 319T532 296Q532 283 525 272Q504 240 473 222T407 204Q378 204 349 214Z" />
<glyph unicode="&#xa0;" glyph-name="uni00A0" horiz-adv-x="279" />
<glyph unicode="&#xa1;" glyph-name="exclamdown" horiz-adv-x="260" d="M93 329T69 353T45 415Q45 452 69 476T130 501Q167 501 191 477T215 415Q215 378 191 354T130 329Q93 329 69 353ZM91 -186T67 -165T42 -106Q42 -96 43 -90L84 230Q87 253 99 265T130 277Q148
277 160 265T175 230L217 -91Q218 -97 218 -107Q218 -144 194 -165T130 -186Q91 -186 67 -165Z" />
<glyph unicode="&#xa2;" glyph-name="cent" horiz-adv-x="600" d="M497 149T509 132T522 89Q522 53 490 34Q443 4 375 -5V-60Q375 -87 359 -103T315 -120Q289 -120 272 -104T255 -60V0Q171 20 124 84T77 245Q77 339 124 404T255 492V554Q255 581 272 598T315 615Q342
615 358 598T375 554V500Q442 492 490 461Q521 443 521 405Q521 379 509 363T477 346Q464 346 453 350T423 364Q400 376 384 381T347 387Q291 387 262 352T232 248Q232 180 261 144T347 108Q368 108 384 113T423 131Q442 140 453 144T477 149Q497 149 509 132Z"
/>
<glyph unicode="&#xa3;" glyph-name="sterling" horiz-adv-x="600" d="M584 125T584 63Q584 31 566 16T510 0H100Q27 0 27 63Q27 125 100 125H114V307H75Q54 307 41 320T27 353Q27 373 40 386T75 399H114V514Q114 573 142 618T221 689T341 714Q399 714 457 695T557
642Q572 630 578 618T584 588Q584 562 570 544T534 525Q521 525 511 528T486 541Q444 566 413 579T348 592Q310 592 289 569T268 504V399H396Q417 399 430 386T444 353Q444 333 431 320T396 307H268V125H510Q584 125 584 63Z" />
<glyph unicode="&#xa4;" glyph-name="currency" horiz-adv-x="600" d="M96 28T88 40T80 67Q81 78 90 85L129 124Q87 176 87 250Q87 319 127 374L96 404Q87 413 84 420T80 438Q80 450 90 460T114 470Q120 470 126 466T136 457T142 451L175 421Q228 455 300 455Q373
455 426 421L458 451Q475 468 489 468Q500 468 510 459T521 438Q521 427 517 420T505 404L473 374Q493 348 503 316T514 250Q514 179 471 124L501 97Q512 84 516 77T521 57Q519 42 509 35T483 27Q473 29 458 46L422 79Q373 48 300 48Q227 48 178 79L146 50Q135
37 128 32T111 27Q96 28 88 40ZM365 108T403 149T441 250Q441 287 425 319T376 372T300 393Q255 393 224 373T176 319T160 250Q160 213 176 181T224 128T300 108Q365 108 403 149Z" />
<glyph unicode="&#xa5;" glyph-name="yen" horiz-adv-x="600" d="M490 711T519 711Q547 711 569 690T591 639Q591 614 573 593L414 403H501Q521 403 535 390T549 357Q549 337 535 324T501 311H377V249H501Q521 249 535 236T549 203Q549 183 535 170T501 157H377V72Q377
34 356 14T300 -6Q265 -6 244 14T222 72V157H99Q79 157 65 170T51 203Q51 223 65 236T99 249H222V311H99Q79 311 65 324T51 357Q51 377 65 390T99 403H185L27 594Q8 617 8 642Q8 670 30 691T79 712Q109 712 131 686L300 478L468 685Q490 711 519 711Z" />
<glyph unicode="&#xa6;" glyph-name="brokenbar" horiz-adv-x="290" d="M115 366T95 385T75 436V640Q75 671 95 690T145 710Q175 710 195 691T215 640V436Q215 405 196 386T145 366Q115 366 95 385ZM115 -185T95 -166T75 -115V89Q75 120 94 139T145 159Q175 159
195 140T215 89V-115Q215 -146 195 -165T145 -185Q115 -185 95 -166Z" />
<glyph unicode="&#xa7;" glyph-name="section" horiz-adv-x="580" d="M549 142T484 86Q509 45 509 4Q509 -87 449 -137T277 -187Q214 -187 168 -177T87 -145Q72 -136 64 -121T56 -87Q56 -64 69 -49T101 -33Q113 -33 126 -37T154 -48Q185 -61 212 -68T282 -76Q319
-76 340 -58T362 -9Q362 15 348 31T299 64L168 123Q97 155 64 197T31 300Q31 341 48 377T97 440Q71 478 71 521Q71 609 133 660T303 712Q397 712 465 670Q496 651 496 615Q496 591 483 575T451 558Q439 558 429 561T409 569T396 576Q372 588 353 595T306 602Q265
602 242 585T218 537Q218 512 233 494T281 461L411 402Q482 370 515 327T549 226Q549 142 484 86ZM378 172Q387 168 405 158Q415 178 415 193Q415 252 335 291L202 356Q197 359 190 362T176 370Q164 351 164 332Q164 274 244 235L378 172Z" />
<glyph unicode="&#xa8;" glyph-name="dieresis" horiz-adv-x="300" d="M22 585T1 605T-20 657Q-20 689 1 708T55 727Q88 727 109 708T130 657Q130 625 110 605T55 585Q22 585 1 605ZM212 585T192 605T171 657Q171 689 191 708T245 727Q278 727 299 708T320 657Q320
625 299 605T245 585Q212 585 192 605Z" />
<glyph unicode="&#xa9;" glyph-name="copyright" horiz-adv-x="815" d="M308 -5T226 42T97 171T50 353Q50 453 97 534T226 663T408 710Q508 710 589 663T718 535T765 353Q765 253 718 172T589 43T408 -5Q308 -5 226 42ZM491 57T557 95T661 201T699 353Q699 437
662 504T558 609T408 648Q324 648 258 610T154 504T116 353Q116 269 153 202T257 96T408 57Q491 57 557 95ZM355 137T307 163T232 239T205 353Q205 417 231 466T306 541T419 568Q503 568 548 532Q561 523 565 513T570 488Q570 468 559 451T526 434Q514 434 503
439T487 446Q453 463 427 463Q384 463 363 437T341 353Q341 294 362 268T427 242Q453 242 487 259Q491 261 502 266T526 271Q547 271 558 254T570 217Q570 201 566 191T548 173Q520 156 490 147T419 137Q355 137 307 163Z" />
<glyph unicode="&#xaa;" glyph-name="ordfeminine" horiz-adv-x="339" d="M247 710T282 676T318 571V462Q318 431 302 416T258 401Q236 401 220 414T201 455Q191 429 169 415T118 401Q74 401 45 430T16 497Q16 541 52 561T177 582H199V594Q199 609 191 615T161
621Q137 621 94 606Q85 603 70 603Q51 603 41 616T30 646Q30 673 55 685Q76 695 108 702T174 710Q247 710 282 676ZM175 480T187 490T199 521V527H190Q153 527 140 521T127 502Q127 493 134 487T156 480Q175 480 187 490Z" />
<glyph unicode="&#xab;" glyph-name="guillemotleft" horiz-adv-x="525" d="M67 221Q52 245 52 266Q52 289 67 311L142 431Q162 463 196 463Q219 463 235 448T252 409Q252 395 245 380L192 266L245 152Q252 138 252 123Q252 100 236 85T196 70Q163 70 143 101L67
221ZM289 221Q274 245 274 266Q274 289 289 311L364 431Q384 463 418 463Q441 463 457 448T474 409Q474 395 467 380L414 266L467 152Q474 138 474 123Q474 100 458 85T418 70Q385 70 365 101L289 221Z" />
<glyph unicode="&#xac;" glyph-name="logicalnot" horiz-adv-x="600" d="M467 135T453 150T438 187V336H108Q86 336 71 350T56 387Q56 409 71 424T108 439H492Q514 439 529 424T544 387V187Q544 164 529 150T491 135Q467 135 453 150Z" />
<glyph unicode="&#xad;" glyph-name="uni00AD" horiz-adv-x="440" d="M51 209T51 268Q51 327 122 327H318Q389 327 389 268Q389 209 318 209H122Q51 209 51 268Z" />
<glyph unicode="&#xae;" glyph-name="registered" horiz-adv-x="815" d="M508 710T589 663T718 535T765 353Q765 253 718 172T589 43T408 -5Q308 -5 226 42T97 171T50 353Q50 453 97 534T226 663T408 710Q508 710 589 663ZM491 57T557 95T661 201T699 353Q699
437 662 504T558 609T408 648Q324 648 258 610T154 504T116 353Q116 269 153 202T257 96T408 57Q491 57 557 95ZM592 229Q607 211 607 193Q607 170 586 154T537 137Q521 137 507 144T482 165L403 278Q392 293 379 293H366V204Q366 171 348 154T302 137Q272 137
253 154T234 204V503Q234 533 249 549T295 565H436Q513 565 554 529T596 431Q596 384 571 350T498 303Q518 300 534 290T567 259L592 229ZM419 389Q448 389 459 397T470 426Q470 448 459 456T419 465H365V389H419Z" />
<glyph unicode="&#xaf;" glyph-name="overscore" horiz-adv-x="300" d="M7 609T-7 621T-21 656Q-21 678 -7 690T29 703H271Q293 703 307 691T321 656Q321 634 307 622T271 609H29Q7 609 -7 621Z" />
<glyph unicode="&#xb0;" glyph-name="degree" horiz-adv-x="368" d="M141 409T106 428T51 482T30 559Q30 602 50 636T106 690T184 710Q227 710 262 691T317 637T337 559Q337 517 317 483T262 429T184 409Q141 409 106 428ZM214 485T234 506T255 559Q255 592 235
613T184 634Q154 634 134 613T113 559Q113 527 133 506T184 485Q214 485 234 506Z" />
<glyph unicode="&#xb1;" glyph-name="plusminus" horiz-adv-x="600" d="M86 285T71 299T56 336Q56 359 71 374T108 389H248V479Q248 501 263 516T300 531Q322 531 337 516T352 479V389H492Q514 389 529 374T544 337Q544 315 530 300T492 285H352V194Q352 172 337
158T300 143Q278 143 263 157T248 194V285H108Q86 285 71 299ZM520 103T535 89T550 52Q550 30 535 15T498 0H114Q92 0 77 15T62 52Q62 74 77 88T114 103H498Q520 103 535 89Z" />
<glyph unicode="&#xb2;" glyph-name="uni00B2" horiz-adv-x="380" d="M334 383T349 371T364 333Q364 282 301 282H88Q62 282 46 296T30 333Q30 362 56 389L176 515Q211 552 211 579Q211 595 202 603T174 612Q152 612 133 603T111 592Q97 585 90 583T71 580Q51
580 40 596T28 629Q28 645 32 655T51 673Q79 691 114 700T184 709Q254 709 297 676T341 587Q341 551 327 524T273 458L195 383H301Q334 383 349 371Z" />
<glyph unicode="&#xb3;" glyph-name="uni00B3" horiz-adv-x="380" d="M311 489T331 463T352 399Q352 346 308 312T182 277Q143 277 106 286T43 315Q31 324 27 334T22 359Q22 376 33 392T65 409Q76 409 87 403T104 394Q107 393 119 387T147 378T177 374Q232 374
232 410Q232 446 177 446H137Q116 446 104 461T91 495Q91 515 103 529T137 544H165Q194 544 206 552T219 579Q219 594 208 603T176 612Q155 612 135 603T111 592Q97 585 90 583T70 580Q51 580 40 597T28 633Q28 646 33 655T51 673Q77 691 113 700T183 709Q257 709
299 675T341 590Q341 558 324 535T274 500Q311 489 331 463Z" />
<glyph unicode="&#xb4;" glyph-name="acute" horiz-adv-x="300" d="M167 550T153 550Q137 550 126 561T115 587Q115 600 124 613L210 728Q235 762 270 762Q295 762 314 744T333 702Q333 672 301 648L179 559Q167 550 153 550Z" />
<glyph unicode="&#xb5;" glyph-name="uni00B5" horiz-adv-x="589" d="M490 501T510 482T531 430V63Q531 32 510 13T454 -6Q422 -6 403 12T384 60V70Q361 32 324 12T239 -8Q226 -8 206 -6V-116Q206 -147 185 -166T129 -185Q95 -185 75 -167T55 -119V430Q55 463
75 482T131 501Q166 501 186 482T206 430V196Q206 152 224 131T281 110Q325 110 352 140T380 219V430Q380 463 400 482T455 501Q490 501 510 482Z" />
<glyph unicode="&#xb6;" glyph-name="paragraph" horiz-adv-x="630" d="M280 -185T266 -171T251 -134V265Q186 265 136 292T59 370T31 486Q31 551 58 600T136 677T254 705H509Q531 705 545 691T559 654V-134Q559 -156 545 -170T510 -185Q488 -185 474 -171T459
-134V615H352V-134Q352 -156 338 -170T302 -185Q280 -185 266 -171Z" />
<glyph unicode="&#xb7;" glyph-name="middot" horiz-adv-x="260" d="M93 182T69 206T45 268Q45 305 69 329T130 354Q167 354 191 330T215 268Q215 231 191 207T130 182Q93 182 69 206Z" />
<glyph unicode="&#xb8;" glyph-name="cedilla" horiz-adv-x="300" d="M228 -40T249 -59T271 -109Q271 -148 236 -172T136 -197Q94 -197 65 -187Q45 -180 45 -157Q45 -143 54 -133T76 -127Q110 -135 132 -135Q178 -135 178 -109Q178 -100 172 -95T154 -90Q145 -90
131 -93T110 -96Q100 -96 95 -91T90 -75L102 20H183L175 -42Q191 -40 197 -40Q228 -40 249 -59Z" />
<glyph unicode="&#xb9;" glyph-name="uni00B9" horiz-adv-x="380" d="M336 383T351 371T367 333Q367 282 303 282H130Q67 282 67 333Q67 383 130 383H152V569L124 554Q111 547 98 547Q78 547 64 563T49 600Q49 629 76 643L158 688Q192 706 220 706Q249 706 265
689T282 643V383H303Q336 383 351 371Z" />
<glyph unicode="&#xba;" glyph-name="ordmasculine" horiz-adv-x="374" d="M103 401T59 445T15 556Q15 622 59 666T187 710Q271 710 314 666T358 556Q358 490 315 446T187 401Q103 401 59 445ZM211 498T224 513T238 556Q238 585 225 599T187 614Q138 614 138 556Q138
528 151 513T187 498Q211 498 224 513Z" />
<glyph unicode="&#xbb;" glyph-name="guillemotright" horiz-adv-x="519" d="M152 85T138 77T108 69Q86 69 69 84T52 123Q52 138 59 152L113 266L59 380Q51 398 51 411Q51 434 68 448T108 463Q123 463 137 455T161 431L231 311Q245 290 245 266Q245 243 231 221L161
101Q152 85 138 77ZM374 85T360 77T330 69Q308 69 291 84T274 123Q274 138 281 152L335 266L281 380Q273 398 273 411Q273 434 290 448T330 463Q345 463 359 455T383 431L453 311Q467 290 467 266Q467 243 453 221L383 101Q374 85 360 77Z" />
<glyph unicode="&#xbc;" glyph-name="onequarter" horiz-adv-x="960" d="M336 383T351 371T367 333Q367 282 303 282H130Q67 282 67 333Q67 383 130 383H152V569L124 554Q111 547 98 547Q78 547 64 563T49 600Q49 629 76 643L158 688Q192 706 220 706Q249 706
265 689T282 643V383H303Q336 383 351 371ZM329 -19T295 -19Q273 -19 258 -4T242 35Q242 54 254 75L608 686Q631 724 665 724Q687 724 702 709T718 670Q718 651 706 630L352 19Q329 -19 295 -19ZM929 156T943 144T958 110Q958 88 944 76T902 63H894V52Q894 25 878
10T836 -5Q811 -5 796 10T780 52V63H646Q619 63 604 79T589 120Q589 145 605 167L773 397Q783 411 798 418T831 426Q857 426 875 409T894 361V156H902Q929 156 943 144ZM697 156H780V267L697 156Z" />
<glyph unicode="&#xbd;" glyph-name="onehalf" horiz-adv-x="960" d="M336 383T351 371T367 333Q367 282 303 282H130Q67 282 67 333Q67 383 130 383H152V569L124 554Q111 547 98 547Q78 547 64 563T49 600Q49 629 76 643L158 688Q192 706 220 706Q249 706 265
689T282 643V383H303Q336 383 351 371ZM329 -19T295 -19Q273 -19 258 -4T242 35Q242 54 254 75L608 686Q631 724 665 724Q687 724 702 709T718 670Q718 651 706 630L352 19Q329 -19 295 -19ZM914 101T929 89T944 51Q944 0 881 0H668Q642 0 626 14T610 51Q610 80
636 107L756 233Q791 270 791 297Q791 313 782 321T754 330Q732 330 713 321T691 310Q677 303 670 301T651 298Q631 298 620 314T608 347Q608 363 612 373T631 391Q659 409 694 418T764 427Q834 427 877 394T921 305Q921 269 907 242T853 176L775 101H881Q914 101
929 89Z" />
<glyph unicode="&#xbe;" glyph-name="threequarters" horiz-adv-x="960" d="M311 489T331 463T352 399Q352 346 308 312T182 277Q143 277 106 286T43 315Q31 324 27 334T22 359Q22 376 33 392T65 409Q76 409 87 403T104 394Q107 393 119 387T147 378T177 374Q232
374 232 410Q232 446 177 446H137Q116 446 104 461T91 495Q91 515 103 529T137 544H165Q194 544 206 552T219 579Q219 594 208 603T176 612Q155 612 135 603T111 592Q97 585 90 583T70 580Q51 580 40 597T28 633Q28 646 33 655T51 673Q77 691 113 700T183 709Q257
709 299 675T341 590Q341 558 324 535T274 500Q311 489 331 463ZM329 -19T295 -19Q273 -19 258 -4T242 35Q242 54 254 75L608 686Q631 724 665 724Q687 724 702 709T718 670Q718 651 706 630L352 19Q329 -19 295 -19ZM929 156T943 144T958 110Q958 88 944 76T902
63H894V52Q894 25 878 10T836 -5Q811 -5 796 10T780 52V63H646Q619 63 604 79T589 120Q589 145 605 167L773 397Q783 411 798 418T831 426Q857 426 875 409T894 361V156H902Q929 156 943 144ZM697 156H780V267L697 156Z" />
<glyph unicode="&#xbf;" glyph-name="questiondown" horiz-adv-x="468" d="M203 329T179 353T155 415Q155 452 179 476T240 501Q276 501 300 477T325 415Q325 378 301 354T240 329Q203 329 179 353ZM163 -188T114 -167T38 -107T10 -21Q10 13 24 40T58 87T111 133Q149
164 169 186T194 237Q198 256 210 266T242 277Q264 277 276 262T288 221Q288 169 269 138T213 74Q187 50 175 33T163 -8Q163 -35 183 -50T239 -66Q271 -66 300 -53T372 -15Q401 1 420 1Q441 1 455 -17T470 -62Q470 -80 464 -92T443 -116Q401 -150 344 -169T226
-188Q163 -188 114 -167Z" />
<glyph unicode="&#xc0;" glyph-name="Agrave" horiz-adv-x="751" d="M735 77T735 63Q735 35 713 16T661 -4Q642 -4 625 6T599 38L546 156H207L154 38Q145 17 129 7T92 -4Q63 -4 40 15T17 63Q17 77 25 95L295 662Q306 686 328 698T375 711Q401 711 423 698T457
662L727 95Q735 77 735 63ZM260 274H493L377 534L260 274ZM248 818Q208 837 208 872Q208 893 224 909T263 926Q289 926 312 903L398 818Q410 807 410 792Q410 778 400 769T375 760Q365 760 357 764L248 818Z" />
<glyph unicode="&#xc1;" glyph-name="Aacute" horiz-adv-x="751" d="M735 77T735 63Q735 35 713 16T661 -4Q642 -4 625 6T599 38L546 156H207L154 38Q145 17 129 7T92 -4Q63 -4 40 15T17 63Q17 77 25 95L295 662Q306 686 328 698T375 711Q401 711 423 698T457
662L727 95Q735 77 735 63ZM260 274H493L377 534L260 274ZM385 760T374 760Q360 760 350 769T339 792Q339 805 352 818L438 903Q461 926 487 926Q509 926 525 910T542 871Q542 856 532 842T502 818L393 764Q385 760 374 760Z" />
<glyph unicode="&#xc2;" glyph-name="Acircumflex" horiz-adv-x="751" d="M735 77T735 63Q735 35 713 16T661 -4Q642 -4 625 6T599 38L546 156H207L154 38Q145 17 129 7T92 -4Q63 -4 40 15T17 63Q17 77 25 95L295 662Q306 686 328 698T375 711Q401 711 423 698T457
662L727 95Q735 77 735 63ZM260 274H493L377 534L260 274ZM291 761T271 761Q252 761 239 773T226 803Q226 822 244 837L324 905Q347 925 375 925Q403 925 426 905L506 837Q524 822 524 803Q524 786 511 774T480 761Q460 761 444 776L375 843L306 776Q291 761 271
761Z" />
<glyph unicode="&#xc3;" glyph-name="Atilde" horiz-adv-x="751" d="M735 77T735 63Q735 35 713 16T661 -4Q642 -4 625 6T599 38L546 156H207L154 38Q145 17 129 7T92 -4Q63 -4 40 15T17 63Q17 77 25 95L295 662Q306 686 328 698T375 711Q401 711 423 698T457
662L727 95Q735 77 735 63ZM260 274H493L377 534L260 274ZM427 781T402 788T372 796Q327 811 301 811Q290 811 283 807T268 795Q259 786 253 782T235 778Q221 778 213 787T204 813Q204 834 216 856T251 892T300 907Q323 907 348 900T378 892Q423 877 449 877Q460
877 466 881T482 893Q490 901 497 905T515 909Q530 909 538 900T546 875Q546 854 534 832T499 796T450 781Q427 781 402 788Z" />
<glyph unicode="&#xc4;" glyph-name="Adieresis" horiz-adv-x="751" d="M735 77T735 63Q735 35 713 16T661 -4Q642 -4 625 6T599 38L546 156H207L154 38Q145 17 129 7T92 -4Q63 -4 40 15T17 63Q17 77 25 95L295 662Q306 686 328 698T375 711Q401 711 423 698T457
662L727 95Q735 77 735 63ZM260 274H493L377 534L260 274ZM247 773T226 792T205 844Q205 876 226 895T280 914Q313 914 334 895T355 844Q355 812 335 793T280 773Q247 773 226 792ZM437 773T417 792T396 844Q396 876 416 895T470 914Q503 914 524 895T545 844Q545
812 524 793T470 773Q437 773 417 792Z" />
<glyph unicode="&#xc5;" glyph-name="Aring" horiz-adv-x="751" d="M735 77T735 63Q735 35 713 16T661 -4Q642 -4 625 6T599 38L546 156H207L154 38Q145 17 128 7T92 -4Q63 -4 40 15T17 63Q17 77 25 95L309 692Q289 706 278 728T267 778Q267 823 298 854T376 885Q422
885 454 854T486 778Q486 752 475 730T443 692L727 95Q735 77 735 63ZM357 823T345 810T333 778Q333 758 345 745T376 732Q395 732 407 745T419 778Q419 797 407 810T376 823Q357 823 345 810ZM260 274H493L377 534L260 274Z" />
<glyph unicode="&#xc6;" glyph-name="AE" horiz-adv-x="1000" d="M978 121T978 60Q978 0 905 0H623Q596 0 578 12T554 44L529 156H218L145 38Q131 16 112 5T72 -6Q44 -6 24 10T4 53Q4 74 18 95L385 662Q398 682 421 693T472 705H905Q978 705 978 645Q978 615 959
600T905 584H576L613 419H885Q958 419 958 358Q958 298 885 298H640L679 121H905Q978 121 978 60ZM292 274H503L448 526L292 274Z" />
<glyph unicode="&#xc7;" glyph-name="Ccedilla" horiz-adv-x="678" d="M618 180T632 162T647 117Q647 99 641 87T620 63Q537 -1 423 -8L419 -42Q435 -40 441 -40Q472 -40 493 -59T515 -109Q515 -148 480 -172T380 -197Q338 -197 309 -187Q289 -180 289 -157Q289
-143 298 -133T320 -127Q354 -135 376 -135Q422 -135 422 -109Q422 -100 416 -95T398 -90Q389 -90 375 -93T354 -96Q344 -96 339 -91T334 -75L343 -6Q253 4 187 51T86 175T50 353Q50 463 92 544T212 670T394 714Q525 714 620 642Q635 630 641 618T647 588Q647 562
633 544T597 525Q583 525 573 528T549 541Q509 567 475 578T402 590Q306 590 258 531T209 353Q209 115 402 115Q439 115 472 126T549 164Q564 173 574 176T597 180Q618 180 632 162Z" />
<glyph unicode="&#xc8;" glyph-name="Egrave" horiz-adv-x="593" d="M108 0T89 19T70 73V632Q70 667 89 686T143 705H497Q571 705 571 645Q571 584 497 584H222V419H477Q551 419 551 358Q551 298 477 298H222V121H497Q571 121 571 60Q571 0 497 0H143Q108 0 89
19ZM204 818Q164 837 164 872Q164 893 180 909T219 926Q245 926 268 903L354 818Q366 807 366 792Q366 778 356 769T331 760Q321 760 313 764L204 818Z" />
<glyph unicode="&#xc9;" glyph-name="Eacute" horiz-adv-x="593" d="M108 0T89 19T70 73V632Q70 667 89 686T143 705H497Q571 705 571 645Q571 584 497 584H222V419H477Q551 419 551 358Q551 298 477 298H222V121H497Q571 121 571 60Q571 0 497 0H143Q108 0 89
19ZM341 760T330 760Q316 760 306 769T295 792Q295 805 308 818L394 903Q417 926 443 926Q465 926 481 910T498 871Q498 856 488 842T458 818L349 764Q341 760 330 760Z" />
<glyph unicode="&#xca;" glyph-name="Ecircumflex" horiz-adv-x="593" d="M108 0T89 19T70 73V632Q70 667 89 686T143 705H497Q571 705 571 645Q571 584 497 584H222V419H477Q551 419 551 358Q551 298 477 298H222V121H497Q571 121 571 60Q571 0 497 0H143Q108
0 89 19ZM247 761T227 761Q208 761 195 773T182 803Q182 822 200 837L280 905Q303 925 331 925Q359 925 382 905L462 837Q480 822 480 803Q480 786 467 774T436 761Q416 761 400 776L331 843L262 776Q247 761 227 761Z" />
<glyph unicode="&#xcb;" glyph-name="Edieresis" horiz-adv-x="593" d="M108 0T89 19T70 73V632Q70 667 89 686T143 705H497Q571 705 571 645Q571 584 497 584H222V419H477Q551 419 551 358Q551 298 477 298H222V121H497Q571 121 571 60Q571 0 497 0H143Q108 0
89 19ZM203 773T182 792T161 844Q161 876 182 895T236 914Q269 914 290 895T311 844Q311 812 291 793T236 773Q203 773 182 792ZM393 773T373 792T352 844Q352 876 372 895T426 914Q459 914 480 895T501 844Q501 812 480 793T426 773Q393 773 373 792Z" />
<glyph unicode="&#xcc;" glyph-name="Igrave" horiz-adv-x="296" d="M112 -6T91 15T70 72V633Q70 668 91 689T148 710Q184 710 205 689T226 633V72Q226 36 205 15T148 -6Q112 -6 91 15ZM21 818Q-19 837 -19 872Q-19 893 -3 909T36 926Q62 926 85 903L171 818Q183
807 183 792Q183 778 173 769T148 760Q138 760 130 764L21 818Z" />
<glyph unicode="&#xcd;" glyph-name="Iacute" horiz-adv-x="296" d="M112 -6T91 15T70 72V633Q70 668 91 689T148 710Q184 710 205 689T226 633V72Q226 36 205 15T148 -6Q112 -6 91 15ZM158 760T147 760Q133 760 123 769T112 792Q112 805 125 818L211 903Q234
926 260 926Q282 926 298 910T315 871Q315 856 305 842T275 818L166 764Q158 760 147 760Z" />
<glyph unicode="&#xce;" glyph-name="Icircumflex" horiz-adv-x="296" d="M112 -6T91 15T70 72V633Q70 668 91 689T148 710Q184 710 205 689T226 633V72Q226 36 205 15T148 -6Q112 -6 91 15ZM64 761T44 761Q25 761 12 773T-1 803Q-1 822 17 837L97 905Q120 925
148 925Q176 925 199 905L279 837Q297 822 297 803Q297 786 284 774T253 761Q233 761 217 776L148 843L79 776Q64 761 44 761Z" />
<glyph unicode="&#xcf;" glyph-name="Idieresis" horiz-adv-x="296" d="M112 -6T91 15T70 72V633Q70 668 91 689T148 710Q184 710 205 689T226 633V72Q226 36 205 15T148 -6Q112 -6 91 15ZM20 773T-1 792T-22 844Q-22 876 -1 895T53 914Q86 914 107 895T128 844Q128
812 108 793T53 773Q20 773 -1 792ZM210 773T190 792T169 844Q169 876 189 895T243 914Q276 914 297 895T318 844Q318 812 297 793T243 773Q210 773 190 792Z" />
<glyph unicode="&#xd0;" glyph-name="Eth" horiz-adv-x="793" d="M489 705T572 663T699 542T743 353Q743 243 700 164T573 42T373 0H173Q138 0 119 19T100 73V297H70Q36 297 18 312T0 356Q0 384 18 399T70 415H100V632Q100 667 119 686T173 705H373Q489 705 572
663ZM587 126T587 353Q587 467 532 523T363 579H256V415H386Q420 415 438 400T456 356Q456 328 438 313T386 297H256V126H363Q587 126 587 353Z" />
<glyph unicode="&#xd1;" glyph-name="Ntilde" horiz-adv-x="752" d="M641 710T661 689T682 633V72Q682 37 662 16T608 -6Q572 -6 550 20L215 449V72Q215 37 196 16T143 -6Q110 -6 90 15T70 72V633Q70 667 90 688T144 710Q181 710 201 684L536 258V633Q536 667
556 688T608 710Q641 710 661 689ZM428 781T403 788T373 796Q328 811 302 811Q291 811 284 807T269 795Q260 786 254 782T236 778Q222 778 214 787T205 813Q205 834 217 856T252 892T301 907Q324 907 349 900T379 892Q424 877 450 877Q461 877 467 881T483 893Q491
901 498 905T516 909Q531 909 539 900T547 875Q547 854 535 832T500 796T451 781Q428 781 403 788Z" />
<glyph unicode="&#xd2;" glyph-name="Ograve" horiz-adv-x="787" d="M289 -9T212 35T92 161T50 353Q50 463 92 544T211 670T394 714Q499 714 576 670T696 545T738 353Q738 243 696 162T577 36T394 -9Q289 -9 212 35ZM482 112T532 174T583 353Q583 470 533 531T394
593Q305 593 256 532T206 353Q206 236 256 174T394 112Q482 112 532 174ZM266 818Q226 837 226 872Q226 893 242 909T281 926Q307 926 330 903L416 818Q428 807 428 792Q428 778 418 769T393 760Q383 760 375 764L266 818Z" />
<glyph unicode="&#xd3;" glyph-name="Oacute" horiz-adv-x="787" d="M289 -9T212 35T92 161T50 353Q50 463 92 544T211 670T394 714Q499 714 576 670T696 545T738 353Q738 243 696 162T577 36T394 -9Q289 -9 212 35ZM482 112T532 174T583 353Q583 470 533 531T394
593Q305 593 256 532T206 353Q206 236 256 174T394 112Q482 112 532 174ZM403 760T392 760Q378 760 368 769T357 792Q357 805 370 818L456 903Q479 926 505 926Q527 926 543 910T560 871Q560 856 550 842T520 818L411 764Q403 760 392 760Z" />
<glyph unicode="&#xd4;" glyph-name="Ocircumflex" horiz-adv-x="787" d="M289 -9T212 35T92 161T50 353Q50 463 92 544T211 670T394 714Q499 714 576 670T696 545T738 353Q738 243 696 162T577 36T394 -9Q289 -9 212 35ZM482 112T532 174T583 353Q583 470 533
531T394 593Q305 593 256 532T206 353Q206 236 256 174T394 112Q482 112 532 174ZM309 761T289 761Q270 761 257 773T244 803Q244 822 262 837L342 905Q365 925 393 925Q421 925 444 905L524 837Q542 822 542 803Q542 786 529 774T498 761Q478 761 462 776L393
843L324 776Q309 761 289 761Z" />
<glyph unicode="&#xd5;" glyph-name="Otilde" horiz-adv-x="787" d="M289 -9T212 35T92 161T50 353Q50 463 92 544T211 670T394 714Q499 714 576 670T696 545T738 353Q738 243 696 162T577 36T394 -9Q289 -9 212 35ZM482 112T532 174T583 353Q583 470 533 531T394
593Q305 593 256 532T206 353Q206 236 256 174T394 112Q482 112 532 174ZM445 781T420 788T390 796Q345 811 319 811Q308 811 301 807T286 795Q277 786 271 782T253 778Q239 778 231 787T222 813Q222 834 234 856T269 892T318 907Q341 907 366 900T396 892Q441
877 467 877Q478 877 484 881T500 893Q508 901 515 905T533 909Q548 909 556 900T564 875Q564 854 552 832T517 796T468 781Q445 781 420 788Z" />
<glyph unicode="&#xd6;" glyph-name="Odieresis" horiz-adv-x="787" d="M289 -9T212 35T92 161T50 353Q50 463 92 544T211 670T394 714Q499 714 576 670T696 545T738 353Q738 243 696 162T577 36T394 -9Q289 -9 212 35ZM482 112T532 174T583 353Q583 470 533 531T394
593Q305 593 256 532T206 353Q206 236 256 174T394 112Q482 112 532 174ZM265 773T244 792T223 844Q223 876 244 895T298 914Q331 914 352 895T373 844Q373 812 353 793T298 773Q265 773 244 792ZM455 773T435 792T414 844Q414 876 434 895T488 914Q521 914 542
895T563 844Q563 812 542 793T488 773Q455 773 435 792Z" />
<glyph unicode="&#xd7;" glyph-name="multiply" horiz-adv-x="600" d="M497 163Q512 148 512 126Q512 104 497 89Q482 74 462 74Q440 74 424 90L300 214L176 90Q160 74 139 74Q118 74 102 90Q87 105 87 125Q87 145 103 163L227 287L103 411Q88 426 88 448Q88 470
103 485Q118 500 139 500Q160 500 176 484L300 360L424 484Q441 499 461 499Q483 499 498 484Q513 469 513 448Q513 427 497 411L373 287L497 163Z" />
<glyph unicode="&#xd8;" glyph-name="Oslash" horiz-adv-x="787" d="M680 588T709 516T738 353Q738 243 696 162T577 36T394 -9Q322 -9 262 12L246 -16Q224 -55 187 -55Q165 -55 150 -40T134 0Q134 21 146 41L163 70Q108 118 79 190T50 353Q50 463 92 544T211
670T394 714Q467 714 525 693L541 721Q552 741 568 750T600 760Q622 760 638 745T654 706Q654 686 641 664L625 636Q680 588 709 516ZM206 259T238 200L461 583Q426 593 394 593Q305 593 256 532T206 353Q206 259 238 200ZM482 112T532 174T583 353Q583 446 550
507L327 123Q358 112 394 112Q482 112 532 174Z" />
<glyph unicode="&#xd9;" glyph-name="Ugrave" horiz-adv-x="739" d="M221 -9T144 67T66 291V633Q66 668 87 689T143 710Q178 710 198 689T219 633V284Q219 200 257 156T369 112Q442 112 481 156T520 284V633Q520 668 540 689T596 710Q631 710 652 689T673 633V291Q673
145 595 68T369 -9Q221 -9 144 67ZM242 818Q202 837 202 872Q202 893 218 909T257 926Q283 926 306 903L392 818Q404 807 404 792Q404 778 394 769T369 760Q359 760 351 764L242 818Z" />
<glyph unicode="&#xda;" glyph-name="Uacute" horiz-adv-x="739" d="M221 -9T144 67T66 291V633Q66 668 87 689T143 710Q178 710 198 689T219 633V284Q219 200 257 156T369 112Q442 112 481 156T520 284V633Q520 668 540 689T596 710Q631 710 652 689T673 633V291Q673
145 595 68T369 -9Q221 -9 144 67ZM379 760T368 760Q354 760 344 769T333 792Q333 805 346 818L432 903Q455 926 481 926Q503 926 519 910T536 871Q536 856 526 842T496 818L387 764Q379 760 368 760Z" />
<glyph unicode="&#xdb;" glyph-name="Ucircumflex" horiz-adv-x="739" d="M221 -9T144 67T66 291V633Q66 668 87 689T143 710Q178 710 198 689T219 633V284Q219 200 257 156T369 112Q442 112 481 156T520 284V633Q520 668 540 689T596 710Q631 710 652 689T673
633V291Q673 145 595 68T369 -9Q221 -9 144 67ZM285 761T265 761Q246 761 233 773T220 803Q220 822 238 837L318 905Q341 925 369 925Q397 925 420 905L500 837Q518 822 518 803Q518 786 505 774T474 761Q454 761 438 776L369 843L300 776Q285 761 265 761Z" />
<glyph unicode="&#xdc;" glyph-name="Udieresis" horiz-adv-x="739" d="M221 -9T144 67T66 291V633Q66 668 87 689T143 710Q178 710 198 689T219 633V284Q219 200 257 156T369 112Q442 112 481 156T520 284V633Q520 668 540 689T596 710Q631 710 652 689T673 633V291Q673
145 595 68T369 -9Q221 -9 144 67ZM241 773T220 792T199 844Q199 876 220 895T274 914Q307 914 328 895T349 844Q349 812 329 793T274 773Q241 773 220 792ZM431 773T411 792T390 844Q390 876 410 895T464 914Q497 914 518 895T539 844Q539 812 518 793T464 773Q431
773 411 792Z" />
<glyph unicode="&#xdd;" glyph-name="Yacute" horiz-adv-x="636" d="M531 711T561 711Q589 711 611 690T634 640Q634 615 615 593L396 333V72Q396 34 374 14T319 -6Q284 -6 262 14T240 72V333L23 593Q4 613 4 640Q4 668 25 689T75 711Q105 711 127 685L318 452L509
685Q531 711 561 711ZM328 760T317 760Q303 760 293 769T282 792Q282 805 295 818L381 903Q404 926 430 926Q452 926 468 910T485 871Q485 856 475 842T445 818L336 764Q328 760 317 760Z" />
<glyph unicode="&#xde;" glyph-name="Thorn" horiz-adv-x="669" d="M510 563T573 509T637 358Q637 263 573 208T395 153H223V72Q223 37 202 16T147 -6Q112 -6 91 15T70 72V633Q70 668 91 689T147 710Q182 710 202 689T223 633V563H395Q510 563 573 509ZM433 272T462
292T491 358Q491 403 462 423T370 444H223V272H370Q433 272 462 292Z" />
<glyph unicode="&#xdf;" glyph-name="germandbls" horiz-adv-x="679" d="M405 -8T363 3T288 34Q256 52 256 92Q256 115 269 130T301 146Q314 146 325 142T356 129Q384 116 405 110T457 103Q488 103 504 113T521 144Q521 166 501 178T436 204Q390 219 362 233T312
275T291 347Q291 384 307 412T356 476Q379 500 390 517T401 552Q401 578 382 591T327 605Q271 605 240 569T209 467V65Q209 32 189 13T134 -6Q99 -6 79 13T58 65V444Q58 574 129 643T334 713Q432 713 487 674T542 565Q542 526 524 498T473 435Q450 411 439 396T428
363Q428 343 447 332T508 308Q555 293 584 278T636 234T658 157Q658 81 602 37T452 -8Q405 -8 363 3Z" />
<glyph unicode="&#xe0;" glyph-name="agrave" horiz-adv-x="546" d="M387 503T439 451T491 290V64Q491 31 472 13T419 -6Q387 -6 368 13T348 64V71Q333 34 298 13T216 -8Q166 -8 126 12T62 68T38 148Q38 202 65 233T154 278T321 292H347V310Q347 352 329 371T267
390Q224 390 143 360Q120 349 104 349Q82 349 69 364T56 405Q56 425 65 438T94 462Q129 481 179 492T279 503Q387 503 439 451ZM293 96T320 125T347 202V219H330Q249 219 217 206T184 159Q184 131 202 114T249 96Q293 96 320 125ZM128 648Q96 672 96 702Q96 727
114 744T159 762Q195 762 219 728L305 613Q314 600 314 587Q314 571 303 560T276 549Q263 549 250 559L128 648Z" />
<glyph unicode="&#xe1;" glyph-name="aacute" horiz-adv-x="546" d="M387 503T439 451T491 290V64Q491 31 472 13T419 -6Q387 -6 368 13T348 64V71Q333 34 298 13T216 -8Q166 -8 126 12T62 68T38 148Q38 202 65 233T154 278T321 292H347V310Q347 352 329 371T267
390Q224 390 143 360Q120 349 104 349Q82 349 69 364T56 405Q56 425 65 438T94 462Q129 481 179 492T279 503Q387 503 439 451ZM293 96T320 125T347 202V219H330Q249 219 217 206T184 159Q184 131 202 114T249 96Q293 96 320 125ZM296 550T282 550Q266 550 255
561T244 587Q244 600 253 613L339 728Q364 762 399 762Q424 762 443 744T462 702Q462 672 430 648L308 559Q296 550 282 550Z" />
<glyph unicode="&#xe2;" glyph-name="acircumflex" horiz-adv-x="546" d="M387 503T439 451T491 290V64Q491 31 472 13T419 -6Q387 -6 368 13T348 64V71Q333 34 298 13T216 -8Q166 -8 126 12T62 68T38 148Q38 202 65 233T154 278T321 292H347V310Q347 352 329
371T267 390Q224 390 143 360Q120 349 104 349Q82 349 69 364T56 405Q56 425 65 438T94 462Q129 481 179 492T279 503Q387 503 439 451ZM293 96T320 125T347 202V219H330Q249 219 217 206T184 159Q184 131 202 114T249 96Q293 96 320 125ZM197 550T173 550Q154
550 140 563T126 594Q126 610 137 624L221 732Q235 749 247 756T279 764Q298 764 310 757T337 731L421 624Q432 610 432 595Q432 577 418 564T385 550Q361 550 345 573L279 671L213 573Q197 550 173 550Z" />
<glyph unicode="&#xe3;" glyph-name="atilde" horiz-adv-x="546" d="M387 503T439 451T491 290V64Q491 31 472 13T419 -6Q387 -6 368 13T348 64V71Q333 34 298 13T216 -8Q166 -8 126 12T62 68T38 148Q38 202 65 233T154 278T321 292H347V310Q347 352 329 371T267
390Q224 390 143 360Q120 349 104 349Q82 349 69 364T56 405Q56 425 65 438T94 462Q129 481 179 492T279 503Q387 503 439 451ZM293 96T320 125T347 202V219H330Q249 219 217 206T184 159Q184 131 202 114T249 96Q293 96 320 125ZM335 581T317 589T274 611Q252
623 239 628T215 634Q200 634 191 627T170 605Q161 593 155 588T137 582Q124 582 116 593T108 621Q108 642 120 668T155 712T204 731Q222 731 239 724T284 701Q304 689 317 683T343 677Q358 677 367 684T388 706Q397 719 403 724T421 730Q434 730 442 719T450 691Q450
670 438 644T403 600T354 581Q335 581 317 589Z" />
<glyph unicode="&#xe4;" glyph-name="adieresis" horiz-adv-x="546" d="M387 503T439 451T491 290V64Q491 31 472 13T419 -6Q387 -6 368 13T348 64V71Q333 34 298 13T216 -8Q166 -8 126 12T62 68T38 148Q38 202 65 233T154 278T321 292H347V310Q347 352 329 371T267
390Q224 390 143 360Q120 349 104 349Q82 349 69 364T56 405Q56 425 65 438T94 462Q129 481 179 492T279 503Q387 503 439 451ZM293 96T320 125T347 202V219H330Q249 219 217 206T184 159Q184 131 202 114T249 96Q293 96 320 125ZM151 585T130 605T109 657Q109
689 130 708T184 727Q217 727 238 708T259 657Q259 625 239 605T184 585Q151 585 130 605ZM341 585T321 605T300 657Q300 689 320 708T374 727Q407 727 428 708T449 657Q449 625 428 605T374 585Q341 585 321 605Z" />
<glyph unicode="&#xe5;" glyph-name="aring" horiz-adv-x="546" d="M387 503T439 451T491 290V64Q491 31 472 13T419 -6Q387 -6 368 13T348 64V71Q333 34 298 13T216 -8Q166 -8 126 12T62 68T38 148Q38 202 65 233T154 278T321 292H347V310Q347 352 329 371T267
390Q224 390 143 360Q120 349 104 349Q82 349 69 364T56 405Q56 425 65 438T94 462Q129 481 179 492T279 503Q387 503 439 451ZM293 96T320 125T347 202V219H330Q249 219 217 206T184 159Q184 131 202 114T249 96Q293 96 320 125ZM233 550T202 581T170 658Q170
703 201 734T279 765Q325 765 356 734T388 658Q388 612 357 581T279 550Q233 550 202 581ZM298 612T310 625T322 658Q322 677 310 690T279 703Q260 703 248 690T236 658Q236 638 248 625T279 612Q298 612 310 625Z" />
<glyph unicode="&#xe6;" glyph-name="ae" horiz-adv-x="837" d="M777 146T789 130T801 89Q801 72 791 58T763 33Q730 15 686 4T604 -8Q535 -8 484 17T404 89Q381 42 337 17T234 -8Q178 -8 134 12T64 67T38 148Q38 202 65 233T154 278T320 292H346V310Q346 352
327 371T267 390Q231 390 204 383T149 363Q118 349 101 349Q81 349 69 364T56 405Q56 441 94 462Q129 482 176 492T275 503Q388 503 435 440Q465 470 505 486T593 503Q655 503 703 473T777 388T804 262Q804 217 765 217H491Q499 159 526 132T607 105Q634 105 654
111T706 130Q740 146 757 146Q777 146 789 130ZM547 399T522 372T491 292H677Q675 343 652 371T590 399Q547 399 522 372ZM293 96T319 126T346 202V219H328Q248 219 216 206T184 159Q184 131 203 114T254 96Q293 96 319 126Z" />
<glyph unicode="&#xe7;" glyph-name="ccedilla" horiz-adv-x="494" d="M453 149T465 132T478 89Q478 52 447 34Q393 -1 314 -7L310 -42Q326 -40 332 -40Q363 -40 384 -59T406 -109Q406 -148 371 -172T271 -197Q229 -197 200 -187Q180 -180 180 -157Q180 -143 189
-133T211 -127Q245 -135 267 -135Q313 -135 313 -109Q313 -100 307 -95T289 -90Q280 -90 266 -93T245 -96Q235 -96 230 -91T225 -75L234 -4Q141 10 88 76T34 245Q34 322 66 380T158 471T294 503Q334 503 374 492T447 461Q478 442 478 405Q478 379 466 363T434 346Q421
346 410 350T379 364Q358 375 342 381T304 387Q248 387 219 352T189 248Q189 180 218 144T304 108Q325 108 341 113T380 131Q399 140 410 144T434 149Q453 149 465 132Z" />
<glyph unicode="&#xe8;" glyph-name="egrave" horiz-adv-x="533" d="M472 146T484 130T497 89Q497 72 487 58T459 33Q425 15 380 4T297 -8Q217 -8 158 23T66 111T34 247Q34 322 65 380T151 470T276 503Q343 503 393 474T472 390T500 262Q500 240 490 229T460 217H180Q187
158 216 132T299 105Q328 105 351 112T402 131Q416 137 429 141T452 146Q472 146 484 130ZM237 399T211 372T180 292H373Q370 345 347 372T280 399Q237 399 211 372ZM125 648Q93 672 93 702Q93 727 111 744T156 762Q192 762 216 728L302 613Q311 600 311 587Q311
571 300 560T273 549Q260 549 247 559L125 648Z" />
<glyph unicode="&#xe9;" glyph-name="eacute" horiz-adv-x="533" d="M472 146T484 130T497 89Q497 72 487 58T459 33Q425 15 380 4T297 -8Q217 -8 158 23T66 111T34 247Q34 322 65 380T151 470T276 503Q343 503 393 474T472 390T500 262Q500 240 490 229T460 217H180Q187
158 216 132T299 105Q328 105 351 112T402 131Q416 137 429 141T452 146Q472 146 484 130ZM237 399T211 372T180 292H373Q370 345 347 372T280 399Q237 399 211 372ZM293 550T279 550Q263 550 252 561T241 587Q241 600 250 613L336 728Q361 762 396 762Q421 762
440 744T459 702Q459 672 427 648L305 559Q293 550 279 550Z" />
<glyph unicode="&#xea;" glyph-name="ecircumflex" horiz-adv-x="533" d="M472 146T484 130T497 89Q497 72 487 58T459 33Q425 15 380 4T297 -8Q217 -8 158 23T66 111T34 247Q34 322 65 380T151 470T276 503Q343 503 393 474T472 390T500 262Q500 240 490 229T460
217H180Q187 158 216 132T299 105Q328 105 351 112T402 131Q416 137 429 141T452 146Q472 146 484 130ZM237 399T211 372T180 292H373Q370 345 347 372T280 399Q237 399 211 372ZM194 550T170 550Q151 550 137 563T123 594Q123 610 134 624L218 732Q232 749 244
756T276 764Q295 764 307 757T334 731L418 624Q429 610 429 595Q429 577 415 564T382 550Q358 550 342 573L276 671L210 573Q194 550 170 550Z" />
<glyph unicode="&#xeb;" glyph-name="edieresis" horiz-adv-x="533" d="M472 146T484 130T497 89Q497 72 487 58T459 33Q425 15 380 4T297 -8Q217 -8 158 23T66 111T34 247Q34 322 65 380T151 470T276 503Q343 503 393 474T472 390T500 262Q500 240 490 229T460
217H180Q187 158 216 132T299 105Q328 105 351 112T402 131Q416 137 429 141T452 146Q472 146 484 130ZM237 399T211 372T180 292H373Q370 345 347 372T280 399Q237 399 211 372ZM148 585T127 605T106 657Q106 689 127 708T181 727Q214 727 235 708T256 657Q256
625 236 605T181 585Q148 585 127 605ZM338 585T318 605T297 657Q297 689 317 708T371 727Q404 727 425 708T446 657Q446 625 425 605T371 585Q338 585 318 605Z" />
<glyph unicode="&#xec;" glyph-name="igrave" horiz-adv-x="267" d="M101 -6T80 12T58 65V430Q58 465 80 483T134 501Q166 501 187 483T209 430V65Q209 30 188 12T134 -6Q101 -6 80 12ZM-17 648Q-49 672 -49 702Q-49 727 -31 744T14 762Q50 762 74 728L160 613Q169
600 169 587Q169 571 158 560T131 549Q118 549 105 559L-17 648Z" />
<glyph unicode="&#xed;" glyph-name="iacute" horiz-adv-x="267" d="M101 -6T80 12T58 65V430Q58 465 80 483T134 501Q166 501 187 483T209 430V65Q209 30 188 12T134 -6Q101 -6 80 12ZM151 550T137 550Q121 550 110 561T99 587Q99 600 108 613L194 728Q219 762
254 762Q279 762 298 744T317 702Q317 672 285 648L163 559Q151 550 137 550Z" />
<glyph unicode="&#xee;" glyph-name="icircumflex" horiz-adv-x="267" d="M101 -6T80 12T58 65V430Q58 465 80 483T134 501Q166 501 187 483T209 430V65Q209 30 188 12T134 -6Q101 -6 80 12ZM52 550T28 550Q9 550 -5 563T-19 594Q-19 610 -8 624L76 732Q90 749
102 756T134 764Q153 764 165 757T192 731L276 624Q287 610 287 595Q287 577 273 564T240 550Q216 550 200 573L134 671L68 573Q52 550 28 550Z" />
<glyph unicode="&#xef;" glyph-name="idieresis" horiz-adv-x="267" d="M101 -6T80 12T58 65V430Q58 465 80 483T134 501Q166 501 187 483T209 430V65Q209 30 188 12T134 -6Q101 -6 80 12ZM6 585T-15 605T-36 657Q-36 689 -15 708T39 727Q72 727 93 708T114 657Q114
625 94 605T39 585Q6 585 -15 605ZM196 585T176 605T155 657Q155 689 175 708T229 727Q262 727 283 708T304 657Q304 625 283 605T229 585Q196 585 176 605Z" />
<glyph unicode="&#xf0;" glyph-name="eth" horiz-adv-x="594" d="M508 491T534 425T561 289Q561 148 490 70T288 -8Q213 -8 156 21T66 103T34 225Q34 292 64 344T149 425T274 455Q352 455 398 419Q376 468 329 512L203 478Q193 476 188 476Q170 476 159 487T148
514Q148 528 157 539T183 555L248 573Q227 586 187 605Q168 614 159 627T149 656Q149 679 166 695T211 712Q227 712 243 706Q326 676 398 613L501 641Q511 643 516 643Q533 643 544 632T555 605Q555 591 546 580T520 564L461 548Q508 491 534 425ZM347 107T375
137T404 225Q404 283 376 313T294 343Q240 343 212 313T184 225Q184 167 212 137T294 107Q347 107 375 137Z" />
<glyph unicode="&#xf1;" glyph-name="ntilde" horiz-adv-x="595" d="M454 503T497 452T540 296V65Q540 32 520 13T464 -6Q429 -6 409 13T389 65V289Q389 339 371 362T313 385Q266 385 238 355T209 275V65Q209 32 189 13T134 -6Q99 -6 79 13T58 65V432Q58 463 79
482T135 501Q166 501 185 483T205 435V421Q231 461 272 482T366 503Q454 503 497 452ZM355 581T337 589T294 611Q272 623 259 628T235 634Q220 634 211 627T190 605Q181 593 175 588T157 582Q144 582 136 593T128 621Q128 642 140 668T175 712T224 731Q242 731
259 724T304 701Q324 689 337 683T363 677Q378 677 387 684T408 706Q417 719 423 724T441 730Q454 730 462 719T470 691Q470 670 458 644T423 600T374 581Q355 581 337 589Z" />
<glyph unicode="&#xf2;" glyph-name="ograve" horiz-adv-x="588" d="M216 -8T157 23T66 112T34 248Q34 326 66 383T157 472T294 503Q372 503 431 472T522 384T554 248Q554 170 522 113T431 24T294 -8Q216 -8 157 23ZM404 107T404 248Q404 319 376 354T294 389Q184
389 184 248Q184 107 294 107Q404 107 404 248ZM143 648Q111 672 111 702Q111 727 129 744T174 762Q210 762 234 728L320 613Q329 600 329 587Q329 571 318 560T291 549Q278 549 265 559L143 648Z" />
<glyph unicode="&#xf3;" glyph-name="oacute" horiz-adv-x="588" d="M216 -8T157 23T66 112T34 248Q34 326 66 383T157 472T294 503Q372 503 431 472T522 384T554 248Q554 170 522 113T431 24T294 -8Q216 -8 157 23ZM404 107T404 248Q404 319 376 354T294 389Q184
389 184 248Q184 107 294 107Q404 107 404 248ZM311 550T297 550Q281 550 270 561T259 587Q259 600 268 613L354 728Q379 762 414 762Q439 762 458 744T477 702Q477 672 445 648L323 559Q311 550 297 550Z" />
<glyph unicode="&#xf4;" glyph-name="ocircumflex" horiz-adv-x="588" d="M216 -8T157 23T66 112T34 248Q34 326 66 383T157 472T294 503Q372 503 431 472T522 384T554 248Q554 170 522 113T431 24T294 -8Q216 -8 157 23ZM404 107T404 248Q404 319 376 354T294
389Q184 389 184 248Q184 107 294 107Q404 107 404 248ZM212 550T188 550Q169 550 155 563T141 594Q141 610 152 624L236 732Q250 749 262 756T294 764Q313 764 325 757T352 731L436 624Q447 610 447 595Q447 577 433 564T400 550Q376 550 360 573L294 671L228
573Q212 550 188 550Z" />
<glyph unicode="&#xf5;" glyph-name="otilde" horiz-adv-x="588" d="M216 -8T157 23T66 112T34 248Q34 326 66 383T157 472T294 503Q372 503 431 472T522 384T554 248Q554 170 522 113T431 24T294 -8Q216 -8 157 23ZM404 107T404 248Q404 319 376 354T294 389Q184
389 184 248Q184 107 294 107Q404 107 404 248ZM350 581T332 589T289 611Q267 623 254 628T230 634Q215 634 206 627T185 605Q176 593 170 588T152 582Q139 582 131 593T123 621Q123 642 135 668T170 712T219 731Q237 731 254 724T299 701Q319 689 332 683T358
677Q373 677 382 684T403 706Q412 719 418 724T436 730Q449 730 457 719T465 691Q465 670 453 644T418 600T369 581Q350 581 332 589Z" />
<glyph unicode="&#xf6;" glyph-name="odieresis" horiz-adv-x="588" d="M216 -8T157 23T66 112T34 248Q34 326 66 383T157 472T294 503Q372 503 431 472T522 384T554 248Q554 170 522 113T431 24T294 -8Q216 -8 157 23ZM404 107T404 248Q404 319 376 354T294 389Q184
389 184 248Q184 107 294 107Q404 107 404 248ZM166 585T145 605T124 657Q124 689 145 708T199 727Q232 727 253 708T274 657Q274 625 254 605T199 585Q166 585 145 605ZM356 585T336 605T315 657Q315 689 335 708T389 727Q422 727 443 708T464 657Q464 625 443
605T389 585Q356 585 336 605Z" />
<glyph unicode="&#xf7;" glyph-name="divide" horiz-adv-x="600" d="M276 422T259 439T242 482Q242 508 259 525T301 542Q326 542 343 525T360 482Q360 457 343 440T301 422Q276 422 259 439ZM92 235T77 250T62 287Q62 309 77 323T114 338H498Q520 338 535 324T550
287Q550 265 535 250T498 235H114Q92 235 77 250ZM276 31T259 48T242 91Q242 117 259 134T301 152Q326 152 343 135T360 91Q360 66 343 49T301 31Q276 31 259 48Z" />
<glyph unicode="&#xf8;" glyph-name="oslash" horiz-adv-x="588" d="M506 420T530 368T554 248Q554 170 522 113T431 24T294 -8Q246 -8 201 5L182 -27Q176 -38 166 -44T144 -50Q128 -50 115 -39T102 -12Q102 0 109 11L127 42Q82 75 58 128T34 248Q34 326 66 383T157
472T294 503Q341 503 388 490L406 521Q412 532 422 538T444 544Q460 544 472 533T485 506Q485 494 479 484L461 453Q506 420 530 368ZM181 194T197 162L327 386Q314 390 294 390Q181 390 181 248Q181 194 197 162ZM406 106T406 248Q406 300 391 333L261 109Q276
106 294 106Q406 106 406 248Z" />
<glyph unicode="&#xf9;" glyph-name="ugrave" horiz-adv-x="589" d="M490 501T510 482T531 430V63Q531 32 510 13T454 -6Q422 -6 403 12T384 60V70Q361 32 324 12T239 -8Q146 -8 101 43T55 199V430Q55 463 75 482T131 501Q166 501 186 482T206 430V196Q206 152
224 131T281 110Q325 110 352 140T380 219V430Q380 463 400 482T455 501Q490 501 510 482ZM143 648Q111 672 111 702Q111 727 129 744T174 762Q210 762 234 728L320 613Q329 600 329 587Q329 571 318 560T291 549Q278 549 265 559L143 648Z" />
<glyph unicode="&#xfa;" glyph-name="uacute" horiz-adv-x="589" d="M490 501T510 482T531 430V63Q531 32 510 13T454 -6Q422 -6 403 12T384 60V70Q361 32 324 12T239 -8Q146 -8 101 43T55 199V430Q55 463 75 482T131 501Q166 501 186 482T206 430V196Q206 152
224 131T281 110Q325 110 352 140T380 219V430Q380 463 400 482T455 501Q490 501 510 482ZM311 550T297 550Q281 550 270 561T259 587Q259 600 268 613L354 728Q379 762 414 762Q439 762 458 744T477 702Q477 672 445 648L323 559Q311 550 297 550Z" />
<glyph unicode="&#xfb;" glyph-name="ucircumflex" horiz-adv-x="589" d="M490 501T510 482T531 430V63Q531 32 510 13T454 -6Q422 -6 403 12T384 60V70Q361 32 324 12T239 -8Q146 -8 101 43T55 199V430Q55 463 75 482T131 501Q166 501 186 482T206 430V196Q206
152 224 131T281 110Q325 110 352 140T380 219V430Q380 463 400 482T455 501Q490 501 510 482ZM212 550T188 550Q169 550 155 563T141 594Q141 610 152 624L236 732Q250 749 262 756T294 764Q313 764 325 757T352 731L436 624Q447 610 447 595Q447 577 433 564T400
550Q376 550 360 573L294 671L228 573Q212 550 188 550Z" />
<glyph unicode="&#xfc;" glyph-name="udieresis" horiz-adv-x="589" d="M490 501T510 482T531 430V63Q531 32 510 13T454 -6Q422 -6 403 12T384 60V70Q361 32 324 12T239 -8Q146 -8 101 43T55 199V430Q55 463 75 482T131 501Q166 501 186 482T206 430V196Q206
152 224 131T281 110Q325 110 352 140T380 219V430Q380 463 400 482T455 501Q490 501 510 482ZM166 585T145 605T124 657Q124 689 145 708T199 727Q232 727 253 708T274 657Q274 625 254 605T199 585Q166 585 145 605ZM356 585T336 605T315 657Q315 689 335 708T389
727Q422 727 443 708T464 657Q464 625 443 605T389 585Q356 585 336 605Z" />
<glyph unicode="&#xfd;" glyph-name="yacute" horiz-adv-x="534" d="M402 479T418 489T454 499Q483 499 505 481T527 436Q527 422 520 408L251 -144Q241 -165 224 -175T188 -186Q160 -186 139 -168T118 -124Q118 -108 125 -94L191 43L13 408Q7 422 7 435Q7 462
30 481T84 500Q104 500 121 490T148 458L272 188L393 458Q402 479 418 489ZM284 550T270 550Q254 550 243 561T232 587Q232 600 241 613L327 728Q352 762 387 762Q412 762 431 744T450 702Q450 672 418 648L296 559Q284 550 270 550Z" />
<glyph unicode="&#xfe;" glyph-name="thorn" horiz-adv-x="613" d="M425 503T474 470T551 379T579 245Q579 170 552 113T475 24T362 -8Q312 -8 272 12T209 70V-119Q209 -149 189 -167T136 -185Q101 -185 80 -166T58 -116V641Q58 672 79 691T136 710Q169 710 189
692T209 644V425Q231 462 271 482T362 503Q425 503 474 470ZM371 107T400 142T429 245Q429 313 400 350T318 388Q265 388 236 352T207 247Q207 180 236 144T318 107Q371 107 400 142Z" />
<glyph unicode="&#xff;" glyph-name="ydieresis" horiz-adv-x="534" d="M402 479T418 489T454 499Q483 499 505 481T527 436Q527 422 520 408L251 -144Q241 -165 224 -175T188 -186Q160 -186 139 -168T118 -124Q118 -108 125 -94L191 43L13 408Q7 422 7 435Q7
462 30 481T84 500Q104 500 121 490T148 458L272 188L393 458Q402 479 418 489ZM139 585T118 605T97 657Q97 689 118 708T172 727Q205 727 226 708T247 657Q247 625 227 605T172 585Q139 585 118 605ZM329 585T309 605T288 657Q288 689 308 708T362 727Q395 727
416 708T437 657Q437 625 416 605T362 585Q329 585 309 605Z" />
<glyph unicode="&#x2013;" glyph-name="endash" horiz-adv-x="500" d="M31 224T16 236T0 268Q0 288 15 300T57 312H443Q469 312 484 300T500 268Q500 248 485 236T443 224H57Q31 224 16 236Z" />
<glyph unicode="&#x2014;" glyph-name="emdash" horiz-adv-x="1000" d="M31 224T16 236T0 268Q0 288 15 300T57 312H943Q969 312 984 300T1000 268Q1000 248 985 236T943 224H57Q31 224 16 236Z" />
<glyph unicode="&#x2021;" glyph-name="quoteleft" horiz-adv-x="260" d="M173 567T194 545T215 489Q215 452 192 428T133 403Q93 403 69 431T45 514Q45 619 119 696Q133 710 151 710Q168 710 181 699T194 671Q194 657 183 645Q150 610 139 570Q173 567 194 545Z" />
<glyph unicode="&#x2019;" glyph-name="quoteright" horiz-adv-x="260" d="M167 710T191 682T215 599Q215 495 140 417Q127 403 109 403Q92 403 79 414T66 442Q66 456 77 468Q110 503 121 543Q87 546 66 568T45 624Q45 661 68 685T127 710Q167 710 191 682Z" />
<glyph unicode="&#x201a;" glyph-name="quotesinglbase" horiz-adv-x="260" d="M167 166T191 138T215 55Q215 -49 140 -127Q125 -142 108 -142Q91 -142 79 -131T66 -103Q66 -88 77 -77Q110 -43 121 -1Q87 2 66 24T45 80Q45 117 68 141T127 166Q167 166 191 138Z" />
<glyph unicode="&#x201c;" glyph-name="quotedblleft" horiz-adv-x="467" d="M173 567T194 545T215 489Q215 452 192 428T133 403Q93 403 69 431T45 514Q45 619 119 696Q133 710 151 710Q168 710 181 699T194 671Q194 657 183 645Q150 610 139 570Q173 567 194
545ZM380 567T401 545T422 489Q422 452 399 428T340 403Q300 403 276 431T252 514Q252 619 326 696Q340 710 358 710Q375 710 388 699T401 671Q401 657 390 645Q357 610 346 570Q380 567 401 545Z" />
<glyph unicode="&#x201d;" glyph-name="quotedblright" horiz-adv-x="467" d="M167 710T191 682T215 599Q215 495 140 417Q127 403 109 403Q92 403 79 414T66 442Q66 456 77 468Q110 503 121 543Q87 546 66 568T45 624Q45 661 68 685T127 710Q167 710 191 682ZM374
710T398 682T422 599Q422 495 347 417Q334 403 316 403Q299 403 286 414T273 442Q273 456 284 468Q317 503 328 543Q294 546 273 568T252 624Q252 661 275 685T334 710Q374 710 398 682Z" />
<glyph unicode="&#x201e;" glyph-name="quotedblbase" horiz-adv-x="467" d="M167 166T191 138T215 55Q215 -49 140 -127Q125 -142 108 -142Q91 -142 79 -131T66 -103Q66 -88 77 -77Q110 -43 121 -1Q87 2 66 24T45 80Q45 117 68 141T127 166Q167 166 191 138ZM374
166T398 138T422 55Q422 -49 347 -127Q332 -142 315 -142Q298 -142 286 -131T273 -103Q273 -88 284 -77Q317 -43 328 -1Q294 2 273 24T252 80Q252 117 275 141T334 166Q374 166 398 138Z" />
<glyph unicode="&#x2022;" glyph-name="bullet" horiz-adv-x="524" d="M214 88T172 111T106 175T81 265Q81 311 104 352T169 418T262 443Q310 443 351 420T418 356T443 265Q443 217 419 177T353 112T262 88Q214 88 172 111Z" />
<glyph unicode="&#x2039;" glyph-name="guilsinglleft" horiz-adv-x="303" d="M67 221Q52 245 52 266Q52 289 67 311L142 431Q162 463 196 463Q219 463 235 448T252 409Q252 395 245 380L192 266L245 152Q252 138 252 123Q252 100 236 85T196 70Q163 70 143 101L67 221Z" />
<glyph unicode="&#x203a;" glyph-name="guilsinglright" horiz-adv-x="297" d="M152 85T138 77T108 69Q86 69 69 84T52 123Q52 138 59 152L113 266L59 380Q51 398 51 411Q51 434 68 448T108 463Q123 463 137 455T161 431L231 311Q245 290 245 266Q245 243 231
221L161 101Q152 85 138 77Z" />
</font>
</defs>
</svg>
